EESchema Schematic File Version 4
EELAYER 30 0
EELAYER END
$Descr A4 11693 8268
encoding utf-8
Sheet 9 22
Title ""
Date ""
Rev ""
Comp ""
Comment1 ""
Comment2 ""
Comment3 ""
Comment4 ""
$EndDescr
Text HLabel 4500 1500 2    60   Output ~ 0
PIN20
Text HLabel 1100 1500 0    60   Input ~ 0
PIN17
Text HLabel 1100 1700 0    60   Input ~ 0
PIN1
$Comp
L REGISTER U?
U 1 1 5D484209
P 2700 1700
F 0 "U?" H 2850 2000 50  0000 C CNN
F 1 "REGISTER" H 2800 1700 50  0000 C CNN
F 2 "" H 2700 1700 50  0000 C CNN
F 3 "" H 2700 1700 50  0000 C CNN
	1    2700 1700
	1    0    0    -1  
$EndComp
Wire Wire Line
	1100 1500 2100 1500
Wire Wire Line
	1100 1700 2100 1700
Text HLabel 1100 850  0    60   Input ~ 0
PIN2
Wire Wire Line
	1100 850  2700 850 
Wire Wire Line
	2700 850  2700 1150
Wire Wire Line
	3300 1500 4500 1500
$Comp
L OR2 U?
U 1 1 5D4849E5
P 2700 5550
F 0 "U?" H 2700 5600 50  0000 C CNN
F 1 "OR2" H 2700 5500 50  0000 C CNN
F 2 "" H 2700 5550 50  0000 C CNN
F 3 "" H 2700 5550 50  0000 C CNN
	1    2700 5550
	1    0    0    -1  
$EndComp
Text HLabel 4200 5550 2    60   Output ~ 0
PIN23
Text HLabel 1450 5450 0    60   Input ~ 0
PIN21
Text HLabel 1450 5650 0    60   Input ~ 0
PIN22
Wire Wire Line
	1450 5450 2100 5450
Wire Wire Line
	1450 5650 2100 5650
Wire Wire Line
	3300 5550 4200 5550
Text HLabel 1450 6450 0    60   Input ~ 0
PIN14
$Comp
L NOT U?
U 1 1 5D48543B
P 2650 6450
F 0 "U?" H 2600 6650 50  0000 C CNN
F 1 "NOT" H 2600 6450 50  0000 C CNN
F 2 "" H 2650 6450 50  0000 C CNN
F 3 "" H 2650 6450 50  0000 C CNN
	1    2650 6450
	1    0    0    -1  
$EndComp
Text HLabel 4300 6450 2    60   Output ~ 0
PIN16
Wire Wire Line
	1450 6450 2200 6450
Wire Wire Line
	3100 6450 4300 6450
Text HLabel 1450 7100 0    60   Input ~ 0
PIN13
Text HLabel 4250 7100 2    60   Output ~ 0
PIN15
$Comp
L NOT U?
U 1 1 5D4854F1
P 2650 7100
F 0 "U?" H 2600 7300 50  0000 C CNN
F 1 "NOT" H 2600 7100 50  0000 C CNN
F 2 "" H 2650 7100 50  0000 C CNN
F 3 "" H 2650 7100 50  0000 C CNN
	1    2650 7100
	1    0    0    -1  
$EndComp
Wire Wire Line
	1450 7100 2200 7100
Wire Wire Line
	3100 7100 4250 7100
$Comp
L REGISTER U?
U 1 1 5D48584D
P 2700 3150
F 0 "U?" H 2850 3450 50  0000 C CNN
F 1 "REGISTER" H 2800 3150 50  0000 C CNN
F 2 "" H 2700 3150 50  0000 C CNN
F 3 "" H 2700 3150 50  0000 C CNN
	1    2700 3150
	1    0    0    -1  
$EndComp
Text HLabel 4500 2950 2    60   Output ~ 0
PIN18
Text HLabel 1150 2950 0    60   Input ~ 0
PIN3
Wire Wire Line
	2100 2950 1150 2950
Wire Wire Line
	3300 2950 4500 2950
Wire Wire Line
	2100 3150 1900 3150
Wire Wire Line
	1900 1700 1900 4600
Connection ~ 1900 1700
Wire Wire Line
	2000 850  2000 3950
Wire Wire Line
	2000 2500 2700 2500
Wire Wire Line
	2700 2500 2700 2600
Connection ~ 2000 850 
$Comp
L REGISTER U?
U 1 1 5D485990
P 2700 4600
F 0 "U?" H 2850 4900 50  0000 C CNN
F 1 "REGISTER" H 2800 4600 50  0000 C CNN
F 2 "" H 2700 4600 50  0000 C CNN
F 3 "" H 2700 4600 50  0000 C CNN
	1    2700 4600
	1    0    0    -1  
$EndComp
Wire Wire Line
	2000 3950 2700 3950
Connection ~ 2000 2500
Wire Wire Line
	2700 3950 2700 4050
Wire Wire Line
	1900 4600 2100 4600
Connection ~ 1900 3150
Text HLabel 4550 4400 2    60   Output ~ 0
PIN19
Wire Wire Line
	3300 4400 4550 4400
Text HLabel 1300 4400 0    60   Input ~ 0
PIN4
Wire Wire Line
	2100 4400 1300 4400
Text HLabel 1450 6050 0    60   Input ~ 0
PIN11
$EndSCHEMATC
