EESchema Schematic File Version 4
EELAYER 30 0
EELAYER END
$Descr A4 11693 8268
encoding utf-8
Sheet 3 22
Title "WICE-4M"
Date "18 sep 2017"
Rev "1"
Comp "Forthnnutter"
Comment1 ""
Comment2 ""
Comment3 ""
Comment4 ""
$EndDescr
$Comp
L conn:DB25 CON1
U 1 1 5772966A
P 950 2300
F 0 "CON1" H 1000 3650 70  0000 C CNN
F 1 "DB25" H 900 950 70  0000 C CNN
F 2 "" H 950 2300 60  0000 C CNN
F 3 "" H 950 2300 60  0000 C CNN
	1    950  2300
	-1   0    0    1   
$EndComp
$Comp
L wice-mod:IDC-34 CON4
U 1 1 585E5417
P 900 5650
F 0 "CON4" H 900 7400 70  0000 C CNN
F 1 "IDC-34" H 850 3750 70  0000 C CNN
F 2 "~" H 900 6500 60  0000 C CNN
F 3 "~" H 900 6500 60  0000 C CNN
	1    900  5650
	1    0    0    -1  
$EndComp
Entry Wire Line
	2300 1100 2400 1200
Entry Wire Line
	2300 1200 2400 1300
Entry Wire Line
	2300 1300 2400 1400
Entry Wire Line
	2300 1400 2400 1500
Entry Wire Line
	2300 1500 2400 1600
Entry Wire Line
	2300 1600 2400 1700
Entry Wire Line
	2300 1700 2400 1800
Entry Wire Line
	2300 1800 2400 1900
Entry Wire Line
	2300 1900 2400 2000
Entry Wire Line
	2300 2100 2400 2200
Entry Wire Line
	2300 2300 2400 2400
Entry Wire Line
	2300 2500 2400 2600
Entry Wire Line
	2300 2700 2400 2800
Entry Wire Line
	2300 2900 2400 3000
Entry Wire Line
	2300 3100 2400 3200
Entry Wire Line
	2300 3300 2400 3400
Entry Wire Line
	2300 3500 2400 3600
Text Label 1900 1100 0    60   ~ 0
STROBE
Text Label 2050 1300 0    60   ~ 0
D0
Text Label 2050 1500 0    60   ~ 0
D1
Text Label 2050 1700 0    60   ~ 0
D2
Text Label 2050 1900 0    60   ~ 0
D3
Text Label 2050 2100 0    60   ~ 0
D4
Text Label 2050 2300 0    60   ~ 0
D5
Text Label 2050 2500 0    60   ~ 0
D6
Text Label 2050 2700 0    60   ~ 0
D7
Text Label 2050 2900 0    60   ~ 0
ACK
Text Label 2000 3100 0    60   ~ 0
BUSY
Text Label 2000 3300 0    60   ~ 0
POUT
Text Label 2050 3500 0    60   ~ 0
SEL
Text Label 1900 1200 0    60   ~ 0
LFEED
Text Label 2000 1400 0    60   ~ 0
ERR
Text Label 1950 1600 0    60   ~ 0
INIT
Text Label 1900 1800 0    60   ~ 0
SELPTR
$Comp
L power:GND #PWR?
U 1 1 585E7DE5
P 1800 7600
AR Path="/585E7DE5" Ref="#PWR?"  Part="1" 
AR Path="/58650E13/585E7DE5" Ref="#PWR?"  Part="1" 
F 0 "#PWR?" H 1800 7600 30  0001 C CNN
F 1 "GND" H 1800 7530 30  0001 C CNN
F 2 "" H 1800 7600 60  0000 C CNN
F 3 "" H 1800 7600 60  0000 C CNN
	1    1800 7600
	1    0    0    -1  
$EndComp
Entry Wire Line
	2300 6250 2400 6150
Entry Wire Line
	2300 6450 2400 6350
Entry Wire Line
	2300 6050 2400 5950
Entry Wire Line
	2300 5850 2400 5750
Entry Wire Line
	2300 5650 2400 5550
Entry Wire Line
	2300 5450 2400 5350
Entry Wire Line
	2300 5250 2400 5150
Entry Wire Line
	2300 5050 2400 4950
Entry Wire Line
	2300 4850 2400 4750
Entry Wire Line
	2300 4750 2400 4650
Entry Wire Line
	2300 4650 2400 4550
Entry Wire Line
	2300 4550 2400 4450
Entry Wire Line
	2300 4450 2400 4350
Entry Wire Line
	2300 4350 2400 4250
Entry Wire Line
	2300 4250 2400 4150
Entry Wire Line
	2300 4150 2400 4050
Entry Wire Line
	2300 4050 2400 3950
Text Label 1950 4050 0    60   ~ 0
STROBE
Text Label 1950 4150 0    60   ~ 0
LFEED
Text Label 2100 4250 0    60   ~ 0
D0
Text Label 2050 4350 0    60   ~ 0
ERR
Text Label 2100 4450 0    60   ~ 0
D1
Text Label 2000 4550 0    60   ~ 0
INIT
Text Label 2100 4650 0    60   ~ 0
D2
Text Label 1950 4750 0    60   ~ 0
SELPTR
Text Label 2100 4850 0    60   ~ 0
D3
Text Label 2100 5050 0    60   ~ 0
D4
Text Label 2100 5250 0    60   ~ 0
D5
Text Label 2100 5450 0    60   ~ 0
D6
Text Label 2100 5650 0    60   ~ 0
D7
Text Label 2050 5850 0    60   ~ 0
ACK
Text Label 2000 6050 0    60   ~ 0
BUSY
Text Label 2000 6250 0    60   ~ 0
POUT
Text Label 2050 6450 0    60   ~ 0
SEL
$Comp
L power:VCC #PWR?
U 1 1 585E88C9
P 1950 6400
F 0 "#PWR?" H 1950 6500 30  0001 C CNN
F 1 "VCC" H 2000 6500 30  0000 C CNN
F 2 "" H 1950 6400 60  0000 C CNN
F 3 "" H 1950 6400 60  0000 C CNN
	1    1950 6400
	1    0    0    -1  
$EndComp
$Comp
L wice-mod:RR8 RP1
U 1 1 58626334
P 3400 1450
F 0 "RP1" H 3450 2000 70  0000 C CNN
F 1 "1K" V 3430 1450 70  0000 C CNN
F 2 "~" H 3400 1450 60  0000 C CNN
F 3 "~" H 3400 1450 60  0000 C CNN
	1    3400 1450
	1    0    0    -1  
$EndComp
Entry Wire Line
	2400 1200 2500 1100
Entry Wire Line
	2400 1300 2500 1200
Entry Wire Line
	2400 1400 2500 1300
Entry Wire Line
	2400 1500 2500 1400
Entry Wire Line
	2400 1600 2500 1500
Entry Wire Line
	2400 1700 2500 1600
Entry Wire Line
	2400 1800 2500 1700
Entry Wire Line
	2400 1900 2500 1800
Text Label 2550 1100 0    60   ~ 0
D0
Text Label 2550 1200 0    60   ~ 0
D1
Text Label 2550 1300 0    60   ~ 0
D2
Text Label 2550 1400 0    60   ~ 0
D3
Text Label 2550 1500 0    60   ~ 0
D4
Text Label 2550 1600 0    60   ~ 0
D5
Text Label 2550 1700 0    60   ~ 0
D6
Text Label 2550 1800 0    60   ~ 0
D7
$Comp
L power:VCC #PWR?
U 1 1 5862673D
P 2900 650
F 0 "#PWR?" H 2900 750 30  0001 C CNN
F 1 "VCC" H 2900 800 30  0000 C CNN
F 2 "" H 2900 650 60  0000 C CNN
F 3 "" H 2900 650 60  0000 C CNN
	1    2900 650 
	1    0    0    -1  
$EndComp
$Comp
L 74xx:74LS244 U2
U 1 1 586267A8
P 3750 2500
F 0 "U2" H 3950 3200 60  0000 C CNN
F 1 "74LS244" H 4100 1850 60  0000 C CNN
F 2 "~" H 3750 2500 60  0000 C CNN
F 3 "~" H 3750 2500 60  0000 C CNN
	1    3750 2500
	1    0    0    -1  
$EndComp
Entry Wire Line
	2400 1900 2500 2000
Entry Wire Line
	2400 2000 2500 2100
Entry Wire Line
	2400 2100 2500 2200
Entry Wire Line
	2400 2200 2500 2300
Entry Wire Line
	2400 2300 2500 2400
Entry Wire Line
	2400 2400 2500 2500
Entry Wire Line
	2400 2500 2500 2600
Entry Wire Line
	2400 2600 2500 2700
Text Label 2550 2000 0    60   ~ 0
D0
Text Label 2550 2100 0    60   ~ 0
D1
Text Label 2550 2200 0    60   ~ 0
D2
Text Label 2550 2300 0    60   ~ 0
D3
Text Label 2550 2400 0    60   ~ 0
D4
Text Label 2550 2500 0    60   ~ 0
D5
Text Label 2550 2600 0    60   ~ 0
D6
Text Label 2550 2700 0    60   ~ 0
D7
$Comp
L power:GND #PWR?
U 1 1 58626E4D
P 2900 3200
AR Path="/58626E4D" Ref="#PWR?"  Part="1" 
AR Path="/58650E13/58626E4D" Ref="#PWR?"  Part="1" 
F 0 "#PWR?" H 2900 3200 30  0001 C CNN
F 1 "GND" H 2900 3130 30  0001 C CNN
F 2 "" H 2900 3200 60  0000 C CNN
F 3 "" H 2900 3200 60  0000 C CNN
	1    2900 3200
	1    0    0    -1  
$EndComp
$Comp
L wice-mod:RR4 RP2
U 1 1 5862722D
P 3400 3350
F 0 "RP2" H 3450 3450 70  0000 C CNN
F 1 "4K7" V 3450 3100 70  0000 C CNN
F 2 "~" H 3400 2900 60  0000 C CNN
F 3 "~" H 3400 2900 60  0000 C CNN
	1    3400 3350
	1    0    0    -1  
$EndComp
Entry Wire Line
	2400 3350 2500 3450
Entry Wire Line
	2400 3450 2500 3550
Entry Wire Line
	2400 3550 2500 3650
Entry Wire Line
	2400 3650 2500 3750
$Comp
L power:VCC #PWR?
U 1 1 586273F2
P 2750 3250
F 0 "#PWR?" H 2750 3350 30  0001 C CNN
F 1 "VCC" H 2750 3400 30  0000 C CNN
F 2 "" H 2750 3250 60  0000 C CNN
F 3 "" H 2750 3250 60  0000 C CNN
	1    2750 3250
	1    0    0    -1  
$EndComp
Text Label 2550 3450 0    60   ~ 0
STROBE
Text Label 2550 3550 0    60   ~ 0
LFEED
Text Label 2550 3650 0    60   ~ 0
SELPTR
Text Label 2550 3750 0    60   ~ 0
INIT
$Comp
L 74xx:74LS244 U7
U 1 1 586275C2
P 4900 4150
F 0 "U7" H 4700 4850 60  0000 C CNN
F 1 "74LS244" H 4550 3450 60  0000 C CNN
F 2 "~" H 4900 4150 60  0000 C CNN
F 3 "~" H 4900 4150 60  0000 C CNN
	1    4900 4150
	-1   0    0    -1  
$EndComp
Entry Wire Line
	2400 3950 2500 4050
Entry Wire Line
	2400 4050 2500 4150
Entry Wire Line
	2400 4150 2500 4250
Entry Wire Line
	2400 4250 2500 4350
$Comp
L Device:R_Pack04 RS1
U 1 1 5862786E
P 3250 4250
F 0 "RS1" V 2950 4250 40  0000 C CNN
F 1 "100R" V 3450 4250 40  0000 C CNN
F 2 "~" H 3250 4250 60  0000 C CNN
F 3 "~" H 3250 4250 60  0000 C CNN
	1    3250 4250
	0    1    1    0   
$EndComp
Text Label 2550 4050 0    60   ~ 0
SEL
Text Label 2550 4150 0    60   ~ 0
POUT
Text Label 2550 4350 0    60   ~ 0
BUSY
Text Label 2550 4250 0    60   ~ 0
ACK
Entry Wire Line
	2400 6050 2500 6150
Entry Wire Line
	2400 6150 2500 6250
Entry Wire Line
	2400 6250 2500 6350
Entry Wire Line
	2400 6350 2500 6450
Text Label 2600 6150 0    60   ~ 0
STROBE
Text Label 2600 6250 0    60   ~ 0
LFEED
Text Label 2600 6350 0    60   ~ 0
SELPTR
Text Label 2600 6450 0    60   ~ 0
INIT
Entry Wire Line
	5400 2700 5500 2600
Entry Wire Line
	5400 2600 5500 2500
Entry Wire Line
	5400 2500 5500 2400
Entry Wire Line
	5400 2400 5500 2300
Entry Wire Line
	5400 2300 5500 2200
Entry Wire Line
	5400 2200 5500 2100
Entry Wire Line
	5400 2100 5500 2000
Entry Wire Line
	5400 2000 5500 1900
Text HLabel 9550 600  2    60   Output ~ 0
BD[0..7]
Text Label 5300 2000 2    60   ~ 0
BD0
Text Label 5300 2100 2    60   ~ 0
BD1
Wire Wire Line
	1400 1100 2300 1100
Wire Wire Line
	1400 1200 2300 1200
Wire Wire Line
	1400 1300 2300 1300
Wire Wire Line
	1400 1400 2300 1400
Wire Wire Line
	1400 1500 2300 1500
Wire Wire Line
	1400 1600 2300 1600
Wire Wire Line
	1400 1700 2300 1700
Wire Wire Line
	1400 1800 2300 1800
Wire Wire Line
	1400 1900 2300 1900
Wire Wire Line
	1400 2100 2300 2100
Wire Wire Line
	1400 2300 2300 2300
Wire Wire Line
	1400 2500 2300 2500
Wire Wire Line
	1400 2700 2300 2700
Wire Wire Line
	1400 2900 2300 2900
Wire Wire Line
	1400 3100 2300 3100
Wire Wire Line
	1400 3300 2300 3300
Wire Wire Line
	1400 3500 2300 3500
Wire Wire Line
	1800 2000 1800 2200
Wire Wire Line
	1800 2000 1400 2000
Wire Wire Line
	1400 2200 1800 2200
Connection ~ 1800 2200
Wire Wire Line
	1400 2400 1800 2400
Connection ~ 1800 2400
Wire Wire Line
	1400 2600 1800 2600
Connection ~ 1800 2600
Wire Wire Line
	1400 2800 1800 2800
Connection ~ 1800 2800
Wire Wire Line
	1400 3000 1800 3000
Connection ~ 1800 3000
Wire Wire Line
	1400 3200 1800 3200
Connection ~ 1800 3200
Wire Wire Line
	1400 3400 1800 3400
Connection ~ 1800 3400
Wire Wire Line
	1500 4050 2300 4050
Wire Wire Line
	1500 4150 2300 4150
Wire Wire Line
	1500 4250 2300 4250
Wire Wire Line
	1500 4350 2300 4350
Wire Wire Line
	1500 4450 2300 4450
Wire Wire Line
	1500 4550 2300 4550
Wire Wire Line
	1500 4650 2300 4650
Wire Wire Line
	1500 4750 2300 4750
Wire Wire Line
	1500 4850 2300 4850
Wire Wire Line
	1500 5050 2300 5050
Wire Wire Line
	1500 5250 2300 5250
Wire Wire Line
	1500 5450 2300 5450
Wire Wire Line
	1500 5650 2300 5650
Wire Wire Line
	1500 5850 2300 5850
Wire Wire Line
	1500 6050 2300 6050
Wire Wire Line
	1500 6250 2300 6250
Wire Wire Line
	1500 6450 2300 6450
Wire Wire Line
	1500 4950 1800 4950
Connection ~ 1800 4950
Wire Wire Line
	1500 5150 1800 5150
Connection ~ 1800 5150
Wire Wire Line
	1500 5350 1800 5350
Connection ~ 1800 5350
Wire Wire Line
	1500 5550 1800 5550
Connection ~ 1800 5550
Wire Wire Line
	1500 5750 1800 5750
Connection ~ 1800 5750
Wire Wire Line
	1500 5950 1800 5950
Connection ~ 1800 5950
Wire Wire Line
	1500 6150 1800 6150
Connection ~ 1800 6150
Wire Wire Line
	1500 6350 1800 6350
Connection ~ 1800 6350
Wire Wire Line
	1500 6550 1800 6550
Connection ~ 1800 6550
Wire Wire Line
	1950 7350 1500 7350
Wire Wire Line
	1950 6400 1950 6750
Wire Wire Line
	1500 7250 1950 7250
Connection ~ 1950 7250
Wire Wire Line
	1500 7150 1950 7150
Connection ~ 1950 7150
Wire Wire Line
	1500 7050 1950 7050
Connection ~ 1950 7050
Wire Wire Line
	1500 6950 1950 6950
Connection ~ 1950 6950
Wire Wire Line
	1500 6850 1950 6850
Connection ~ 1950 6850
Wire Wire Line
	1500 6750 1950 6750
Connection ~ 1950 6750
Wire Wire Line
	2500 1100 3050 1100
Wire Wire Line
	2500 1200 3050 1200
Wire Wire Line
	2500 1300 3050 1300
Wire Wire Line
	2500 1400 3050 1400
Wire Wire Line
	2500 1500 3050 1500
Wire Wire Line
	2500 1600 3050 1600
Wire Wire Line
	2500 1700 3050 1700
Wire Wire Line
	2500 1800 3050 1800
Wire Wire Line
	3050 1000 2900 1000
Wire Wire Line
	2900 1000 2900 650 
Wire Wire Line
	3250 2100 2500 2100
Wire Wire Line
	2500 2200 3250 2200
Wire Wire Line
	2500 2300 3250 2300
Wire Wire Line
	3250 2400 2500 2400
Wire Wire Line
	2500 2500 3250 2500
Wire Wire Line
	2500 2600 3250 2600
Wire Wire Line
	2500 2700 3250 2700
Wire Wire Line
	2500 2000 3250 2000
Wire Wire Line
	3250 2900 2900 2900
Wire Wire Line
	2900 2900 2900 3000
Wire Wire Line
	3250 3000 2900 3000
Connection ~ 2900 3000
Wire Wire Line
	2500 3450 3050 3450
Wire Wire Line
	2500 3550 3050 3550
Wire Wire Line
	2500 3650 3050 3650
Wire Wire Line
	2500 3750 3050 3750
Wire Wire Line
	3050 3350 2750 3350
Wire Wire Line
	2750 3350 2750 3250
Wire Wire Line
	3050 4050 2500 4050
Wire Wire Line
	2500 4350 3050 4350
Wire Wire Line
	3050 4150 2500 4150
Wire Wire Line
	2500 4250 3050 4250
Wire Wire Line
	3450 4050 3900 4050
Wire Wire Line
	3450 4150 3950 4150
Wire Wire Line
	3450 4250 4000 4250
Wire Wire Line
	3450 4350 4050 4350
Wire Wire Line
	4400 3950 4050 3950
Wire Wire Line
	4050 3950 4050 4350
Connection ~ 4050 4350
Wire Wire Line
	4400 3850 4000 3850
Wire Wire Line
	4000 3850 4000 4250
Connection ~ 4000 4250
Wire Wire Line
	4400 3750 3950 3750
Wire Wire Line
	3950 3750 3950 4150
Connection ~ 3950 4150
Wire Wire Line
	4400 3650 3900 3650
Wire Wire Line
	3900 3650 3900 4050
Connection ~ 3900 4050
Wire Wire Line
	2500 6150 4150 6150
Wire Wire Line
	4150 6250 2500 6250
Wire Wire Line
	2500 6350 4150 6350
Wire Wire Line
	4150 6450 2500 6450
Wire Bus Line
	5500 600  9550 600 
Wire Wire Line
	4250 2700 5400 2700
Wire Wire Line
	5400 2600 4250 2600
Wire Wire Line
	4250 2500 5400 2500
Wire Wire Line
	5400 2400 4250 2400
Wire Wire Line
	4250 2300 5400 2300
Wire Wire Line
	5400 2200 4250 2200
Wire Wire Line
	4250 2100 5400 2100
Wire Wire Line
	5400 2000 4250 2000
Text Label 5300 2200 2    60   ~ 0
BD2
Text Label 5300 2300 2    60   ~ 0
BD3
Text Label 5300 2400 2    60   ~ 0
BD4
Text Label 5300 2500 2    60   ~ 0
BD5
Text Label 5300 2600 2    60   ~ 0
BD6
Text Label 5300 2700 2    60   ~ 0
BD7
Text HLabel 8750 6250 2    60   Output ~ 0
BLFEED
Wire Wire Line
	5250 6250 8750 6250
Text Label 8400 6250 2    60   ~ 0
BLFEED
Text HLabel 8750 6150 2    60   Output ~ 0
BSTROBE
Wire Wire Line
	5250 6150 8750 6150
Text Label 8350 6150 2    60   ~ 0
BSTRB
$Comp
L 74xx:74LS74 U9
U 1 1 587E1A6B
P 7300 2200
F 0 "U9" H 7450 2500 60  0000 C CNN
F 1 "74LS74" H 7600 1905 60  0000 C CNN
F 2 "~" H 7300 2200 60  0000 C CNN
F 3 "~" H 7300 2200 60  0000 C CNN
	1    7300 2200
	1    0    0    -1  
$EndComp
$Comp
L Device:R R12
U 1 1 587E1A9F
P 3800 5050
F 0 "R12" V 3880 5050 40  0000 C CNN
F 1 "1K" V 3807 5051 40  0000 C CNN
F 2 "~" V 3730 5050 30  0000 C CNN
F 3 "~" H 3800 5050 30  0000 C CNN
	1    3800 5050
	1    0    0    -1  
$EndComp
$Comp
L Device:R R2
U 1 1 587E1AAE
P 3300 5400
F 0 "R2" V 3200 5400 40  0000 C CNN
F 1 "100R" V 3307 5401 40  0000 C CNN
F 2 "~" V 3230 5400 30  0000 C CNN
F 3 "~" H 3300 5400 30  0000 C CNN
	1    3300 5400
	0    1    1    0   
$EndComp
Entry Wire Line
	2400 5300 2500 5400
Wire Wire Line
	3150 5400 2500 5400
Wire Wire Line
	3450 5400 3800 5400
Wire Wire Line
	3800 5400 3800 5200
Connection ~ 3800 5400
$Comp
L power:VCC #PWR?
U 1 1 587E1CF7
P 3800 4800
F 0 "#PWR?" H 3800 4900 30  0001 C CNN
F 1 "VCC" H 3800 4900 30  0000 C CNN
F 2 "" H 3800 4800 60  0000 C CNN
F 3 "" H 3800 4800 60  0000 C CNN
	1    3800 4800
	1    0    0    -1  
$EndComp
$Comp
L 74xx:74LS244 U22
U 1 1 58833DD9
P 7350 4150
F 0 "U22" H 7150 4850 60  0000 C CNN
F 1 "74LS244" H 7100 3450 60  0000 C CNN
F 2 "~" H 7350 4150 60  0000 C CNN
F 3 "~" H 7350 4150 60  0000 C CNN
	1    7350 4150
	-1   0    0    -1  
$EndComp
Wire Bus Line
	6100 1300 9550 1300
Entry Wire Line
	6100 3650 6200 3750
Entry Wire Line
	6100 3550 6200 3650
Entry Wire Line
	6100 3750 6200 3850
Entry Wire Line
	6100 3850 6200 3950
Entry Wire Line
	6100 3950 6200 4050
Entry Wire Line
	6100 4050 6200 4150
Entry Wire Line
	6100 4150 6200 4250
Entry Wire Line
	6100 4250 6200 4350
Entry Wire Line
	6000 3650 6100 3550
Entry Wire Line
	6000 3750 6100 3650
Entry Wire Line
	6000 3850 6100 3750
Entry Wire Line
	6000 3950 6100 3850
Entry Wire Line
	6000 4050 6100 3950
Entry Wire Line
	6000 4150 6100 4050
Entry Wire Line
	6000 4250 6100 4150
Entry Wire Line
	6000 4350 6100 4250
Wire Wire Line
	5400 3650 6000 3650
Wire Wire Line
	6000 3750 5400 3750
Wire Wire Line
	5400 3850 6000 3850
Wire Wire Line
	6000 3950 5400 3950
Wire Wire Line
	5400 4050 6000 4050
Wire Wire Line
	6000 4150 5400 4150
Wire Wire Line
	5400 4250 6000 4250
Wire Wire Line
	6000 4350 5400 4350
Wire Wire Line
	6200 4350 6850 4350
Wire Wire Line
	6850 4250 6200 4250
Wire Wire Line
	6200 4150 6850 4150
Wire Wire Line
	6850 4050 6200 4050
Wire Wire Line
	6200 3950 6850 3950
Wire Wire Line
	6850 3850 6200 3850
Wire Wire Line
	6200 3750 6850 3750
Wire Wire Line
	6850 3650 6200 3650
Text HLabel 9550 1300 2    60   BiDi ~ 0
RD[0..7]
Entry Wire Line
	8600 4350 8700 4250
Entry Wire Line
	8600 4250 8700 4150
Entry Wire Line
	8600 4150 8700 4050
Entry Wire Line
	8600 4050 8700 3950
Entry Wire Line
	8600 3950 8700 3850
Entry Wire Line
	8600 3850 8700 3750
Entry Wire Line
	8600 3750 8700 3650
Entry Wire Line
	8600 3650 8700 3550
Wire Wire Line
	7850 4350 8600 4350
Wire Wire Line
	8600 4250 7850 4250
Wire Wire Line
	7850 4150 8600 4150
Wire Wire Line
	8600 4050 7850 4050
Wire Wire Line
	7850 3950 8600 3950
Wire Wire Line
	8600 3850 7850 3850
Wire Wire Line
	7850 3750 8600 3750
Wire Wire Line
	8600 3650 7850 3650
Text Label 5850 3650 2    60   ~ 0
RD0
Text Label 5850 3750 2    60   ~ 0
RD1
Text Label 5850 3850 2    60   ~ 0
RD2
Text Label 5850 3950 2    60   ~ 0
RD3
Text Label 5850 4050 2    60   ~ 0
RD4
Text Label 5850 4150 2    60   ~ 0
RD5
Text Label 5850 4250 2    60   ~ 0
RD6
Text Label 5850 4350 2    60   ~ 0
RD7
Text Label 6400 3650 2    60   ~ 0
RD0
Text Label 6400 3750 2    60   ~ 0
RD1
Text Label 6400 3850 2    60   ~ 0
RD2
Text Label 6400 3950 2    60   ~ 0
RD3
Text Label 6400 4050 2    60   ~ 0
RD4
Text Label 6400 4150 2    60   ~ 0
RD5
Text Label 6400 4350 2    60   ~ 0
RD7
Text Label 6400 4250 2    60   ~ 0
RD6
Text Label 8500 3650 2    60   ~ 0
BD0
Text Label 8500 3750 2    60   ~ 0
BD1
Text Label 8500 3850 2    60   ~ 0
BD2
Text Label 8500 3950 2    60   ~ 0
BD3
Text Label 8500 4050 2    60   ~ 0
BD4
Text Label 8500 4150 2    60   ~ 0
BD5
Text Label 8500 4250 2    60   ~ 0
BD6
Text Label 8500 4350 2    60   ~ 0
BD7
Text HLabel 8750 6350 2    60   Output ~ 0
BSELPTR
Text HLabel 8750 6450 2    60   Output ~ 0
BINT
Wire Wire Line
	5250 6350 8750 6350
Wire Wire Line
	5250 6450 8750 6450
Wire Wire Line
	5400 4550 6700 4550
Wire Wire Line
	6700 4550 6700 5200
Wire Wire Line
	6700 5200 9050 5200
Text HLabel 9050 5200 2    60   Input ~ 0
LNIBBLE
Text HLabel 9050 5300 2    60   Input ~ 0
UNIBBLE
Wire Wire Line
	9050 5300 6600 5300
Wire Wire Line
	6600 5300 6600 4650
Wire Wire Line
	6600 4650 5400 4650
Text HLabel 9050 4550 2    60   Input ~ 0
BDRD
Wire Wire Line
	7850 4550 8500 4550
Wire Wire Line
	7850 4650 8500 4650
Wire Wire Line
	8500 4650 8500 4550
Connection ~ 8500 4550
$Comp
L power:GND #PWR?
U 1 1 5884A3A2
P 3350 7500
AR Path="/5884A3A2" Ref="#PWR?"  Part="1" 
AR Path="/58650E13/5884A3A2" Ref="#PWR?"  Part="1" 
F 0 "#PWR?" H 3350 7500 30  0001 C CNN
F 1 "GND" H 3350 7430 30  0001 C CNN
F 2 "" H 3350 7500 60  0000 C CNN
F 3 "" H 3350 7500 60  0000 C CNN
	1    3350 7500
	1    0    0    -1  
$EndComp
Wire Wire Line
	3350 7500 3350 5950
Wire Wire Line
	3350 5950 4150 5950
Text Label 2550 5400 0    60   ~ 0
ERR
$Comp
L 74xx_IEEE:74LS240 U1
U 1 1 59AC0A4C
P 4700 6250
F 0 "U1" H 4550 6700 60  0000 C CNN
F 1 "74LS240-IEEE" H 4700 5900 60  0000 C CNN
F 2 "" H 4700 6250 60  0000 C CNN
F 3 "" H 4700 6250 60  0000 C CNN
	1    4700 6250
	1    0    0    -1  
$EndComp
Entry Wire Line
	6100 2100 6200 2200
Wire Wire Line
	7000 2200 6200 2200
Text Label 6250 2200 0    60   ~ 0
RD7
Wire Wire Line
	7000 2100 6750 2100
Wire Wire Line
	6750 2100 6750 1450
Wire Wire Line
	6750 1450 9550 1450
Text HLabel 9550 1450 2    60   Input ~ 0
ERRSTATUS
$Comp
L power:VCC #PWR?
U 1 1 59B7E9A0
P 7300 1050
F 0 "#PWR?" H 7300 1150 30  0001 C CNN
F 1 "VCC" H 7300 1200 30  0000 C CNN
F 2 "" H 7300 1050 60  0000 C CNN
F 3 "" H 7300 1050 60  0000 C CNN
	1    7300 1050
	1    0    0    -1  
$EndComp
Wire Wire Line
	7300 1900 7300 1050
Wire Wire Line
	9600 5400 9600 2400
Wire Wire Line
	9600 2400 7900 2400
$Comp
L Device:Jumper JP7
U 1 1 59B7EB3C
P 9250 2000
F 0 "JP7" H 9250 2150 60  0000 C CNN
F 1 "JUMPER" H 9250 1920 40  0000 C CNN
F 2 "~" H 9250 2000 60  0000 C CNN
F 3 "~" H 9250 2000 60  0000 C CNN
	1    9250 2000
	1    0    0    -1  
$EndComp
Wire Wire Line
	7900 2000 8950 2000
Text HLabel 10000 2000 2    60   Output ~ 0
STATUS
Wire Wire Line
	9550 2000 9750 2000
Wire Wire Line
	9750 2000 9750 5850
Wire Wire Line
	9750 5850 6000 5850
Wire Wire Line
	6000 5850 6000 6650
Wire Wire Line
	6000 6650 1500 6650
Connection ~ 9750 2000
Text HLabel 10000 2900 2    60   Input ~ 0
ERRCLR
Wire Wire Line
	10000 2900 7300 2900
Wire Wire Line
	7300 2900 7300 2500
Wire Wire Line
	1800 2200 1800 2400
Wire Wire Line
	1800 2400 1800 2600
Wire Wire Line
	1800 2600 1800 2800
Wire Wire Line
	1800 2800 1800 3000
Wire Wire Line
	1800 3000 1800 3200
Wire Wire Line
	1800 3200 1800 3400
Wire Wire Line
	1800 3400 1800 4950
Wire Wire Line
	1800 4950 1800 5150
Wire Wire Line
	1800 5150 1800 5350
Wire Wire Line
	1800 5350 1800 5550
Wire Wire Line
	1800 5550 1800 5750
Wire Wire Line
	1800 5750 1800 5950
Wire Wire Line
	1800 5950 1800 6150
Wire Wire Line
	1800 6150 1800 6350
Wire Wire Line
	1800 6350 1800 6550
Wire Wire Line
	1800 6550 1800 7600
Wire Wire Line
	1950 7250 1950 7350
Wire Wire Line
	1950 7150 1950 7250
Wire Wire Line
	1950 7050 1950 7150
Wire Wire Line
	1950 6950 1950 7050
Wire Wire Line
	1950 6850 1950 6950
Wire Wire Line
	1950 6750 1950 6850
Wire Wire Line
	2900 3000 2900 3200
Wire Wire Line
	4050 4350 4400 4350
Wire Wire Line
	4000 4250 4400 4250
Wire Wire Line
	3950 4150 4400 4150
Wire Wire Line
	3900 4050 4400 4050
Wire Wire Line
	3800 5400 9600 5400
Wire Wire Line
	8500 4550 9050 4550
Wire Wire Line
	9750 2000 10000 2000
Wire Wire Line
	3800 4900 3800 4800
$Comp
L power:GND #PWR?
U 1 1 5EF26342
P 3750 3500
F 0 "#PWR?" H 3750 3250 50  0001 C CNN
F 1 "GND" H 3755 3327 50  0000 C CNN
F 2 "" H 3750 3500 50  0001 C CNN
F 3 "" H 3750 3500 50  0001 C CNN
	1    3750 3500
	1    0    0    -1  
$EndComp
$Comp
L power:GND #PWR?
U 1 1 5EF26A26
P 4900 5150
F 0 "#PWR?" H 4900 4900 50  0001 C CNN
F 1 "GND" H 4905 4977 50  0000 C CNN
F 2 "" H 4900 5150 50  0001 C CNN
F 3 "" H 4900 5150 50  0001 C CNN
	1    4900 5150
	1    0    0    -1  
$EndComp
$Comp
L power:VCC #PWR?
U 1 1 5EF271DE
P 3750 1550
F 0 "#PWR?" H 3750 1400 50  0001 C CNN
F 1 "VCC" H 3765 1723 50  0000 C CNN
F 2 "" H 3750 1550 50  0001 C CNN
F 3 "" H 3750 1550 50  0001 C CNN
	1    3750 1550
	1    0    0    -1  
$EndComp
$Comp
L power:VCC #PWR?
U 1 1 5EF2BA35
P 4900 3150
F 0 "#PWR?" H 4900 3000 50  0001 C CNN
F 1 "VCC" H 4915 3323 50  0000 C CNN
F 2 "" H 4900 3150 50  0001 C CNN
F 3 "" H 4900 3150 50  0001 C CNN
	1    4900 3150
	1    0    0    -1  
$EndComp
Wire Wire Line
	3750 1700 3750 1550
Wire Wire Line
	3750 3500 3750 3300
Wire Wire Line
	4900 3350 4900 3150
Wire Wire Line
	4900 5150 4900 4950
Wire Wire Line
	7600 2100 7900 2100
Wire Wire Line
	7900 2100 7900 2000
Wire Wire Line
	7600 2300 7900 2300
Wire Wire Line
	7900 2300 7900 2400
$Comp
L power:GND #PWR?
U 1 1 5F058865
P 7350 5500
F 0 "#PWR?" H 7350 5250 50  0001 C CNN
F 1 "GND" H 7355 5327 50  0000 C CNN
F 2 "" H 7350 5500 50  0001 C CNN
F 3 "" H 7350 5500 50  0001 C CNN
	1    7350 5500
	1    0    0    -1  
$EndComp
Wire Wire Line
	7350 5500 7350 4950
$Comp
L power:VCC #PWR?
U 1 1 5F0676DF
P 7350 3200
F 0 "#PWR?" H 7350 3050 50  0001 C CNN
F 1 "VCC" H 7365 3373 50  0000 C CNN
F 2 "" H 7350 3200 50  0001 C CNN
F 3 "" H 7350 3200 50  0001 C CNN
	1    7350 3200
	1    0    0    -1  
$EndComp
Wire Wire Line
	7350 3350 7350 3200
Wire Bus Line
	5500 600  5500 2600
Wire Bus Line
	6100 1300 6100 4250
Wire Bus Line
	8700 600  8700 4250
Wire Bus Line
	2400 1100 2400 6350
$EndSCHEMATC
