EESchema Schematic File Version 4
EELAYER 30 0
EELAYER END
$Descr A4 11693 8268
encoding utf-8
Sheet 1 22
Title "The Begining"
Date "18 sep 2017"
Rev "1"
Comp "Forthnutter"
Comment1 ""
Comment2 ""
Comment3 ""
Comment4 ""
$EndDescr
$Sheet
S 3150 1500 1000 850 
U 58650D20
F0 "LFeed Latch" 50
F1 "wice-lfeed-latch.sch" 50
F2 "LATCH" I L 3150 1950 60 
F3 "POR" I L 3150 1600 60 
F4 "LSEL" I L 3150 2200 60 
F5 "BD[0..7]" I L 3150 1800 60 
F6 "LATCH0" O R 4150 1800 60 
F7 "LATCH1" O R 4150 1900 60 
F8 "LATCH2" O R 4150 2000 60 
F9 "LFD6" O R 4150 1600 60 
F10 "LFD2" O R 4150 1700 60 
F11 "LFD3" O R 4150 2150 60 
$EndSheet
$Sheet
S 700  1550 1050 3100
U 58650E13
F0 "Buffer Interface" 50
F1 "wice-interface.sch" 50
F2 "BD[0..7]" O R 1750 1800 60 
F3 "BLFEED" O R 1750 1950 60 
F4 "BSTROBE" O R 1750 2050 60 
F5 "RD[0..7]" B R 1750 2950 60 
F6 "BSELPTR" O R 1750 2250 60 
F7 "BINT" O R 1750 2150 60 
F8 "LNIBBLE" I R 1750 2450 60 
F9 "UNIBBLE" I R 1750 2350 60 
F10 "BDRD" I R 1750 1600 60 
F11 "ERRSTATUS" I R 1750 4100 60 
F12 "ERRCLR" I R 1750 4200 60 
F13 "STATUS" O R 1750 2550 60 
$EndSheet
Wire Bus Line
	1750 1800 3150 1800
Wire Wire Line
	1750 1950 3150 1950
Wire Wire Line
	4150 2150 8200 2150
$Sheet
S 3250 4750 950  2350
U 58667DAF
F0 "Strobe Latches" 50
F1 "wice-strobe-latch.sch" 50
F2 "LOE" I R 4200 5300 60 
F3 "LATCH0" I R 4200 5200 60 
F4 "BD[0..7]" I L 3250 5100 60 
F5 "LATCH1" I R 4200 5100 60 
F6 "LATCH2" I R 4200 5000 60 
F7 "RESET" I L 3250 5000 60 
F8 "ARESET" O R 4200 5600 60 
F9 "RAMOE" O L 3250 4800 60 
F10 "UNIBBLE" O R 4200 4900 60 
F11 "LNIBBLE" O R 4200 4800 60 
F12 "PROFILE0" O R 4200 5400 60 
F13 "PROFILE1" O R 4200 6000 60 
F14 "PROFILE2" O R 4200 6100 60 
F15 "PROFILE3" O R 4200 6200 60 
F16 "PROFILE4" O R 4200 6300 60 
F17 "PROFILE5" O R 4200 6400 60 
F18 "PROFILE6" O R 4200 6500 60 
F19 "PROFILE7" O R 4200 6600 60 
F20 "EMUSEL" O L 3250 4900 60 
F21 "BSEL" O R 4200 6800 60 
F22 "ENA17" O R 4200 5900 60 
F23 "ERRCLR" O L 3250 5300 60 
F24 "ESTATUS" O L 3250 5200 60 
F25 "L2D0" O R 4200 5700 60 
F26 "ENA15" O R 4200 5800 60 
F27 "ENDATA" O R 4200 7000 60 
F28 "ENCS2" O R 4200 6700 60 
F29 "EN-A17" O L 3250 5600 60 
F30 "ENRAM0" O L 3250 5700 60 
F31 "ENRAM1" O L 3250 5800 60 
$EndSheet
$Sheet
S 700  900  1050 400 
U 58677DE2
F0 "Power" 50
F1 "wice-power.sch" 50
F2 "POR" O R 1750 1100 60 
$EndSheet
Wire Wire Line
	2900 1600 3150 1600
Wire Wire Line
	1750 1100 2900 1100
Wire Wire Line
	2900 1100 2900 1600
$Sheet
S 3100 3350 1200 1100
U 58689C25
F0 "RAM Select" 50
F1 "wice-ram-sel.sch" 50
F2 "STROUT" O L 3100 3450 60 
F3 "STRIN" I L 3100 3550 60 
F4 "DISABLE_RAM" I R 4300 3750 60 
F5 "RWE" O R 4300 3850 60 
F6 "RAMWE" I L 3100 3650 60 
F7 "RAMOE" I L 3100 3950 60 
F8 "ROE" O R 4300 3950 60 
F9 "DISEL" I L 3100 3850 60 
F10 "ULSEL" I R 4300 4300 60 
F11 "BXA17" I R 4300 3650 60 
F12 "BXA17-1" I R 4300 3550 60 
F13 "Q3" I R 4300 4200 60 
F14 "LOWSEL" I L 3100 3750 60 
F15 "HISEL" I R 4300 4400 60 
F16 "RSEL0" O R 4300 4050 60 
F17 "RSEL1" O R 4300 3400 60 
F18 "RSEL2" O L 3100 4100 60 
F19 "RSEL3" O L 3100 4200 60 
$EndSheet
Wire Wire Line
	3100 3450 2700 3450
Wire Wire Line
	2700 3450 2700 2200
Wire Wire Line
	2700 2200 3150 2200
Wire Wire Line
	3100 3550 2650 3550
Wire Wire Line
	2650 3550 2650 2050
Wire Wire Line
	2650 2050 1750 2050
Wire Bus Line
	2500 5100 3250 5100
Wire Bus Line
	2500 1800 2500 5100
$Sheet
S 5650 750  1350 900 
U 58692F13
F0 "Glue Logic" 50
F1 "wice-glue.sch" 50
F2 "POR" I L 5650 1100 60 
F3 "DOUT" O R 7000 800 60 
F4 "LATCHEN01" O L 5650 1500 60 
F5 "SEL_STB" O L 5650 1400 60 
F6 "BD[4..7]" I L 5650 850 60 
F7 "A17EN" I R 7000 1200 60 
F8 "L1D0" I R 7000 1600 60 
F9 "A15EN" I R 7000 1300 60 
F10 "CLKU8" I L 5650 1200 60 
F11 "CLKU9" I L 5650 1300 60 
F12 "O18" O R 7000 1000 60 
F13 "O19" O R 7000 1100 60 
F14 "U8P14" I R 7000 1400 60 
F15 "U8P23" O R 7000 1500 60 
F16 "O20" O R 7000 900 60 
$EndSheet
Wire Wire Line
	4150 1600 4550 1600
Wire Wire Line
	4550 1600 4550 1200
Wire Wire Line
	4550 1200 5650 1200
Connection ~ 2900 1100
Wire Wire Line
	4150 1700 4600 1700
Wire Wire Line
	4600 1700 4600 1300
Wire Wire Line
	4600 1300 5650 1300
Wire Bus Line
	5650 850  2600 850 
Wire Bus Line
	2600 850  2600 1800
$Sheet
S 9850 4200 800  2250
U 5868B489
F0 "ROM Interface" 50
F1 "wice-rom-interface.sch" 50
F2 "RA[0..16]" O L 9850 4300 60 
F3 "PROFILE0" I L 9850 5000 60 
F4 "ROE" O L 9850 4400 60 
F5 "BSEL" I L 9850 6300 60 
F6 "PROFILE1" I L 9850 5100 60 
F7 "RCS1" O L 9850 4700 60 
F8 "RCS2" O L 9850 4500 60 
F9 "PROFILE2" I L 9850 5200 60 
F10 "RWE" O L 9850 4600 60 
F11 "PROFILE3" I L 9850 5300 60 
F12 "PROFILE4" I L 9850 5400 60 
F13 "RCS3" O L 9850 6100 60 
F14 "PROFILE5" I L 9850 5500 60 
F15 "PROFILE6" I L 9850 5600 60 
F16 "PROFILE7" I L 9850 5700 60 
F17 "U8-A18" I L 9850 4800 60 
F18 "U29E1" I L 9850 5800 60 
$EndSheet
$Sheet
S 6250 2550 950  950 
U 588482D7
F0 "Address counter" 50
F1 "wice-address-count.sch" 50
F2 "ACLK" I L 6250 2700 60 
F3 "ARESET" I L 6250 2850 60 
F4 "RA[0..16]" O R 7200 3150 60 
$EndSheet
Wire Wire Line
	1750 2150 2600 2150
Wire Wire Line
	2600 2150 2600 2700
Wire Wire Line
	2600 2700 6250 2700
Wire Wire Line
	4200 5600 5800 5600
Wire Wire Line
	5800 5600 5800 2850
Wire Wire Line
	5800 2850 6250 2850
Wire Wire Line
	4150 2000 4900 2000
Wire Wire Line
	4900 2000 4900 5000
Wire Wire Line
	4900 5000 4200 5000
Wire Wire Line
	2550 3650 3100 3650
Wire Wire Line
	2550 2250 2550 3650
Wire Wire Line
	4200 5100 4950 5100
Wire Wire Line
	4950 5100 4950 1900
Wire Wire Line
	4950 1900 4150 1900
Wire Wire Line
	4150 1800 5000 1800
Wire Wire Line
	5000 1800 5000 5200
Wire Wire Line
	5000 5200 4200 5200
$Sheet
S 9850 2550 800  1250
U 5914B581
F0 "Memory" 50
F1 "wice-memory.sch" 50
F2 "ROE" I L 9850 3250 60 
F3 "A[0..A16]" I L 9850 2650 60 
F4 "D[0..7]" B L 9850 3650 60 
F5 "RWE" I L 9850 3150 60 
F6 "RCS2" I L 9850 3350 60 
$EndSheet
Wire Wire Line
	1750 1600 2500 1600
Wire Wire Line
	2500 1600 2500 650 
Wire Wire Line
	2500 650  7100 650 
Wire Wire Line
	7100 650  7100 800 
Wire Wire Line
	7100 800  7000 800 
Wire Wire Line
	3250 4800 2700 4800
Wire Wire Line
	2700 4800 2700 3950
Wire Wire Line
	2700 3950 2800 3950
Wire Wire Line
	1750 2250 2550 2250
Wire Bus Line
	1750 2950 5400 2950
Text Label 6550 3650 0    60   ~ 0
RD[0..7]
Wire Wire Line
	4200 4800 4800 4800
Wire Wire Line
	4800 4800 4800 2800
Wire Wire Line
	4800 2800 2400 2800
Wire Wire Line
	2400 2800 2400 2450
Wire Wire Line
	2400 2450 1750 2450
Wire Wire Line
	1750 2350 2450 2350
Wire Wire Line
	2450 2350 2450 2750
Wire Wire Line
	2450 2750 4850 2750
Wire Wire Line
	4850 2750 4850 4900
Wire Wire Line
	4850 4900 4200 4900
Wire Wire Line
	4300 3950 9300 3950
Wire Wire Line
	4300 3850 9200 3850
Wire Wire Line
	3250 4900 2600 4900
Wire Wire Line
	2600 4900 2600 3850
Wire Wire Line
	2600 3850 3100 3850
Wire Wire Line
	4200 6800 6900 6800
Wire Bus Line
	9850 3650 5400 3650
Wire Bus Line
	5400 3650 5400 2950
Wire Bus Line
	9850 2650 9100 2650
Wire Wire Line
	9300 3250 9300 3950
Wire Wire Line
	9200 3150 9200 3850
Wire Wire Line
	9200 3150 9850 3150
Wire Wire Line
	9850 3250 9300 3250
Connection ~ 9300 3950
Wire Wire Line
	9300 4400 9850 4400
Wire Bus Line
	7200 3150 9100 3150
Wire Wire Line
	9850 4500 9400 4500
Wire Wire Line
	9400 4500 9400 3350
Wire Wire Line
	9400 3350 9850 3350
Wire Wire Line
	9200 4600 9850 4600
Connection ~ 9200 3850
Wire Wire Line
	2900 5000 3250 5000
Connection ~ 2900 1600
Wire Wire Line
	5100 5300 4200 5300
Wire Wire Line
	5100 1500 5100 5300
Wire Wire Line
	5650 1500 5100 1500
Wire Wire Line
	5650 1400 5050 1400
Wire Wire Line
	5050 1400 5050 3750
Wire Wire Line
	5050 3750 4300 3750
Wire Wire Line
	3250 5200 2400 5200
Wire Wire Line
	2400 5200 2400 4100
Wire Wire Line
	2400 4100 1750 4100
Wire Wire Line
	3250 5300 2300 5300
Wire Wire Line
	2300 5300 2300 4200
Wire Wire Line
	2300 4200 1750 4200
$Sheet
S 8500 800  1050 850 
U 5CB6B78E
F0 "Output" 60
F1 "wice-output.sch" 60
F2 "O18" I L 8500 1000 60 
F3 "LEDG" I L 8500 1350 60 
F4 "O19" I L 8500 1100 60 
F5 "O20" I L 8500 900 60 
F6 "STATUS" I L 8500 1600 60 
$EndSheet
Wire Wire Line
	8200 2150 8200 1350
Wire Wire Line
	8200 1350 8500 1350
Wire Wire Line
	7000 1000 8500 1000
Wire Wire Line
	7000 1600 7100 1600
Wire Wire Line
	7100 1600 7100 2450
Wire Wire Line
	7100 2450 4250 2450
Wire Wire Line
	4250 2450 4250 2600
Wire Wire Line
	4250 2600 2800 2600
Wire Wire Line
	2800 2600 2800 3950
Connection ~ 2800 3950
Wire Wire Line
	4200 5700 7650 5700
Wire Wire Line
	7650 5700 7650 1400
Wire Wire Line
	7650 1400 7000 1400
Wire Wire Line
	8500 1100 7000 1100
Wire Wire Line
	7000 900  8500 900 
Wire Wire Line
	4200 5800 7800 5800
Wire Wire Line
	7800 5800 7800 1300
Wire Wire Line
	7800 1300 7000 1300
Wire Wire Line
	4200 5900 7950 5900
Wire Wire Line
	7950 5900 7950 1200
Wire Wire Line
	7950 1200 7000 1200
Wire Bus Line
	9100 4300 9850 4300
Wire Wire Line
	6900 6800 6900 6300
Wire Wire Line
	6900 6300 9850 6300
Wire Wire Line
	9850 4800 8100 4800
Wire Wire Line
	8100 4800 8100 1500
Wire Wire Line
	8100 1500 7000 1500
Connection ~ 7800 5800
Wire Wire Line
	1750 2550 2350 2550
Wire Wire Line
	2350 2550 2350 2850
Wire Wire Line
	2350 2850 5150 2850
Wire Wire Line
	5150 2850 5150 2100
Wire Wire Line
	5150 2100 8250 2100
Wire Wire Line
	8250 2100 8250 1600
Wire Wire Line
	8250 1600 8500 1600
Text Label 5500 2100 0    60   ~ 0
STATUS
Wire Wire Line
	2900 1100 5650 1100
Wire Wire Line
	9300 3950 9300 4400
Wire Wire Line
	9200 3850 9200 4600
Wire Wire Line
	2900 1600 2900 5000
Wire Wire Line
	2800 3950 3100 3950
Wire Wire Line
	7800 5800 9850 5800
Wire Bus Line
	9100 2650 9100 4300
$EndSCHEMATC
