EESchema Schematic File Version 4
EELAYER 30 0
EELAYER END
$Descr A4 11693 8268
encoding utf-8
Sheet 2 22
Title "Line Feed Latch"
Date "18 sep 2017"
Rev ""
Comp ""
Comment1 ""
Comment2 ""
Comment3 ""
Comment4 ""
$EndDescr
$Comp
L 74xx:74LS273 U30
U 1 1 586505D6
P 3100 1500
F 0 "U30" H 3350 2250 60  0000 C CNN
F 1 "74LS273" H 3350 800 60  0000 C CNN
F 2 "~" H 3100 1500 60  0000 C CNN
F 3 "~" H 3100 1500 60  0000 C CNN
	1    3100 1500
	1    0    0    -1  
$EndComp
Text HLabel 1150 1900 0    60   Input ~ 0
LATCH
Wire Wire Line
	1150 1900 2600 1900
Text HLabel 1150 2000 0    60   Input ~ 0
POR
Wire Wire Line
	1150 2000 2600 2000
Text HLabel 1150 850  0    60   Input ~ 0
BD[0..7]
Wire Bus Line
	1150 850  1900 850 
Entry Wire Line
	1900 900  2000 1000
Entry Wire Line
	1900 1000 2000 1100
Entry Wire Line
	1900 1100 2000 1200
Entry Wire Line
	1900 1200 2000 1300
Entry Wire Line
	1900 1300 2000 1400
Entry Wire Line
	1900 1400 2000 1500
Entry Wire Line
	1900 1500 2000 1600
Entry Wire Line
	1900 1600 2000 1700
Wire Wire Line
	2000 1000 2600 1000
Wire Wire Line
	2000 1100 2600 1100
Wire Wire Line
	2600 1200 2000 1200
Wire Wire Line
	2000 1300 2600 1300
Wire Wire Line
	2600 1400 2000 1400
Wire Wire Line
	2000 1500 2600 1500
Wire Wire Line
	2600 1600 2000 1600
Wire Wire Line
	2000 1700 2600 1700
Text Label 2050 1000 0    60   ~ 0
BD0
Text Label 2050 1100 0    60   ~ 0
BD1
Text Label 2050 1200 0    60   ~ 0
BD2
Text Label 2050 1300 0    60   ~ 0
BD3
Text Label 2050 1400 0    60   ~ 0
BD4
Text Label 2050 1500 0    60   ~ 0
BD5
Text Label 2050 1600 0    60   ~ 0
BD6
Text Label 2050 1700 0    60   ~ 0
BD7
$Comp
L 74xx:74LS139 U3
U 1 1 586535EE
P 7050 1000
F 0 "U3" H 7050 1250 60  0000 C CNN
F 1 "74LS139" H 7050 650 60  0000 C CNN
F 2 "~" H 7050 1000 60  0000 C CNN
F 3 "~" H 7050 1000 60  0000 C CNN
	1    7050 1000
	1    0    0    -1  
$EndComp
Wire Wire Line
	3600 1100 4900 1100
Wire Wire Line
	4900 1100 4900 1150
Wire Wire Line
	4900 1150 5500 1150
Text Label 5450 1000 2    60   ~ 0
LA0
Text Label 5450 1150 2    60   ~ 0
LA1
Text HLabel 1150 2900 0    60   Input ~ 0
LSEL
Wire Wire Line
	1150 2900 3700 2900
Wire Wire Line
	5600 2900 5600 1200
Wire Wire Line
	5600 1200 6550 1200
$Comp
L Device:R R20
U 1 1 58653A1A
P 3700 2500
F 0 "R20" V 3780 2500 40  0000 C CNN
F 1 "1K" V 3707 2501 40  0000 C CNN
F 2 "~" V 3630 2500 30  0000 C CNN
F 3 "~" H 3700 2500 30  0000 C CNN
	1    3700 2500
	1    0    0    -1  
$EndComp
Wire Wire Line
	3700 2650 3700 2900
Connection ~ 3700 2900
$Comp
L power:VCC #PWR?
U 1 1 58653A58
P 3700 2150
F 0 "#PWR?" H 3700 2250 30  0001 C CNN
F 1 "VCC" H 3700 2300 30  0000 C CNN
F 2 "" H 3700 2150 60  0000 C CNN
F 3 "" H 3700 2150 60  0000 C CNN
	1    3700 2150
	1    0    0    -1  
$EndComp
Wire Wire Line
	3700 2350 3700 2150
Wire Wire Line
	3600 1200 4800 1200
Wire Wire Line
	4800 1200 4800 1800
Wire Wire Line
	4800 1800 9050 1800
Text HLabel 9050 1800 2    60   Output ~ 0
LFD2
Text HLabel 9050 2050 2    60   Output ~ 0
LFD3
Wire Wire Line
	3600 1300 4700 1300
Wire Wire Line
	4700 1300 4700 2050
Wire Wire Line
	4700 2050 9050 2050
Wire Wire Line
	3600 1600 4600 1600
Wire Wire Line
	4600 1600 4600 2250
Wire Wire Line
	4600 2250 9050 2250
Text HLabel 9050 2250 2    60   Output ~ 0
LFD6
Text HLabel 9050 900  2    60   Output ~ 0
LATCH0
Text HLabel 9050 1000 2    60   Output ~ 0
LATCH1
Text HLabel 9050 1100 2    60   Output ~ 0
LATCH2
Wire Wire Line
	7550 900  9050 900 
Wire Wire Line
	9050 1000 7550 1000
Wire Wire Line
	7550 1100 9050 1100
Wire Wire Line
	3700 2900 5600 2900
$Comp
L power:VCC #PWR?
U 1 1 5F0A5591
P 3100 650
F 0 "#PWR?" H 3100 500 50  0001 C CNN
F 1 "VCC" H 3200 750 50  0000 C CNN
F 2 "" H 3100 650 50  0001 C CNN
F 3 "" H 3100 650 50  0001 C CNN
	1    3100 650 
	1    0    0    -1  
$EndComp
Wire Wire Line
	3100 700  3100 650 
$Comp
L power:GND #PWR?
U 1 1 5F0A6A6D
P 3100 2500
F 0 "#PWR?" H 3100 2250 50  0001 C CNN
F 1 "GND" H 3105 2327 50  0000 C CNN
F 2 "" H 3100 2500 50  0001 C CNN
F 3 "" H 3100 2500 50  0001 C CNN
	1    3100 2500
	1    0    0    -1  
$EndComp
Wire Wire Line
	3100 2500 3100 2300
Wire Wire Line
	3600 1000 6550 1000
Wire Wire Line
	5500 1150 5500 900 
Wire Wire Line
	5500 900  6550 900 
Wire Bus Line
	1900 850  1900 1600
$EndSCHEMATC
