EESchema Schematic File Version 4
EELAYER 30 0
EELAYER END
$Descr A4 11693 8268
encoding utf-8
Sheet 22 22
Title ""
Date ""
Rev ""
Comp ""
Comment1 ""
Comment2 ""
Comment3 ""
Comment4 ""
$EndDescr
Text HLabel 5050 1300 0    60   Input ~ 0
O18
$Comp
L 74xx:74LS06 U21
U 1 1 5CB6CF9E
P 5800 1300
F 0 "U21" H 5995 1415 50  0000 C CNN
F 1 "74LS06" H 5990 1175 50  0000 C CNN
F 2 "" H 5800 1300 50  0000 C CNN
F 3 "" H 5800 1300 50  0000 C CNN
	1    5800 1300
	1    0    0    -1  
$EndComp
$Comp
L Device:R R7
U 1 1 5CB6D009
P 6650 1300
F 0 "R7" V 6730 1300 50  0000 C CNN
F 1 "100R" V 6550 1300 50  0000 C CNN
F 2 "" V 6580 1300 50  0000 C CNN
F 3 "" H 6650 1300 50  0000 C CNN
	1    6650 1300
	0    -1   -1   0   
$EndComp
Wire Wire Line
	9600 1600 9400 1600
Wire Wire Line
	9400 1600 9400 2000
$Comp
L Connector_Generic:Conn_01x05 CONN3
U 1 1 5CB6D0C6
P 9800 1400
F 0 "CONN3" H 9800 1700 50  0000 C CNN
F 1 "CONN_01X05" V 9900 1400 50  0000 C CNN
F 2 "" H 9800 1400 50  0000 C CNN
F 3 "" H 9800 1400 50  0000 C CNN
	1    9800 1400
	1    0    0    -1  
$EndComp
Wire Wire Line
	9600 1300 7700 1300
$Comp
L Device:R_Network04 RP4
U 1 1 5CB6D690
P 7900 950
F 0 "RP4" V 7600 950 50  0000 C CNN
F 1 "4K7" V 8100 950 50  0000 C CNN
F 2 "Resistors_ThroughHole:Resistor_Array_SIP5" V 8175 950 50  0001 C CNN
F 3 "" H 7900 950 50  0000 C CNN
	1    7900 950 
	1    0    0    -1  
$EndComp
Wire Wire Line
	7700 750  7700 700 
Wire Wire Line
	7700 1150 7700 1300
Connection ~ 7700 1300
Wire Wire Line
	8000 1150 8000 1200
Wire Wire Line
	8000 1200 8500 1200
Wire Wire Line
	9600 1400 7900 1400
Wire Wire Line
	7900 1150 7900 1400
Wire Wire Line
	9600 1500 8000 1500
Wire Wire Line
	7800 1500 7800 1150
$Comp
L 74xx:74LS06 U21
U 4 1 5CB6D73F
P 5750 3100
F 0 "U21" H 5945 3215 50  0000 C CNN
F 1 "74LS06" H 5940 2975 50  0000 C CNN
F 2 "" H 5750 3100 50  0000 C CNN
F 3 "" H 5750 3100 50  0000 C CNN
	4    5750 3100
	1    0    0    -1  
$EndComp
$Comp
L Device:R R6
U 1 1 5CB6DDF6
P 6600 3100
F 0 "R6" V 6680 3100 50  0000 C CNN
F 1 "1K" V 6600 3100 50  0000 C CNN
F 2 "" V 6530 3100 50  0000 C CNN
F 3 "" H 6600 3100 50  0000 C CNN
	1    6600 3100
	0    -1   -1   0   
$EndComp
$Comp
L Device:LED D4
U 1 1 5CB6DF73
P 7350 3100
F 0 "D4" H 7350 3200 50  0000 C CNN
F 1 "LED GREEN" H 7500 3000 50  0000 C CNN
F 2 "" H 7350 3100 50  0000 C CNN
F 3 "" H 7350 3100 50  0000 C CNN
	1    7350 3100
	1    0    0    -1  
$EndComp
Wire Wire Line
	6750 3100 7200 3100
Wire Wire Line
	7500 3100 7650 3100
Wire Wire Line
	7650 3100 7650 2900
Text HLabel 5000 3100 0    60   Input ~ 0
LEDG
$Comp
L 74xx:74LS06 U21
U 2 1 5CB76A02
P 5800 1750
F 0 "U21" H 5995 1865 50  0000 C CNN
F 1 "74LS06" H 5990 1625 50  0000 C CNN
F 2 "" H 5800 1750 50  0000 C CNN
F 3 "" H 5800 1750 50  0000 C CNN
	2    5800 1750
	1    0    0    -1  
$EndComp
Text HLabel 5050 1750 0    60   Input ~ 0
O19
$Comp
L Device:R R8
U 1 1 5CB76B06
P 6650 1750
F 0 "R8" V 6730 1750 50  0000 C CNN
F 1 "100R" V 6550 1750 50  0000 C CNN
F 2 "" V 6580 1750 50  0000 C CNN
F 3 "" H 6650 1750 50  0000 C CNN
	1    6650 1750
	0    -1   -1   0   
$EndComp
Wire Wire Line
	7900 1750 6800 1750
Connection ~ 7900 1400
$Comp
L 74xx:74LS06 U21
U 3 1 5CB7B98B
P 5800 2200
F 0 "U21" H 5995 2315 50  0000 C CNN
F 1 "74LS06" H 5990 2075 50  0000 C CNN
F 2 "" H 5800 2200 50  0000 C CNN
F 3 "" H 5800 2200 50  0000 C CNN
	3    5800 2200
	1    0    0    -1  
$EndComp
Text HLabel 5050 2200 0    60   Input ~ 0
O20
$Comp
L Device:R R9
U 1 1 5CB7BA45
P 6650 2200
F 0 "R9" V 6730 2200 50  0000 C CNN
F 1 "100R" V 6550 2200 50  0000 C CNN
F 2 "" V 6580 2200 50  0000 C CNN
F 3 "" H 6650 2200 50  0000 C CNN
	1    6650 2200
	0    -1   -1   0   
$EndComp
Wire Wire Line
	6800 2200 8000 2200
Wire Wire Line
	8000 2200 8000 1500
Connection ~ 8000 1500
$Comp
L 74xx:74LS06 U21
U 5 1 5D9CC09E
P 5750 4050
F 0 "U21" H 5945 4165 50  0000 C CNN
F 1 "74LS06" H 5940 3925 50  0000 C CNN
F 2 "" H 5750 4050 50  0000 C CNN
F 3 "" H 5750 4050 50  0000 C CNN
	5    5750 4050
	1    0    0    -1  
$EndComp
Wire Wire Line
	8500 4050 8500 1200
Connection ~ 8500 1200
Text HLabel 5000 4050 0    60   Input ~ 0
STATUS
Wire Wire Line
	7700 1300 6800 1300
Wire Wire Line
	7900 1400 7900 1750
Wire Wire Line
	8000 1500 7800 1500
Wire Wire Line
	8500 1200 9600 1200
Wire Wire Line
	5050 1300 5500 1300
Wire Wire Line
	6100 1300 6500 1300
Wire Wire Line
	5050 1750 5500 1750
Wire Wire Line
	6100 1750 6500 1750
Wire Wire Line
	5050 2200 5500 2200
Wire Wire Line
	6100 2200 6500 2200
$Comp
L power:VCC #PWR?
U 1 1 5EC23CA0
P 7700 700
F 0 "#PWR?" H 7700 550 50  0001 C CNN
F 1 "VCC" H 7717 873 50  0000 C CNN
F 2 "" H 7700 700 50  0001 C CNN
F 3 "" H 7700 700 50  0001 C CNN
	1    7700 700 
	1    0    0    -1  
$EndComp
$Comp
L power:GND #PWR?
U 1 1 5EC26B16
P 9400 2000
F 0 "#PWR?" H 9400 1750 50  0001 C CNN
F 1 "GND" H 9405 1827 50  0000 C CNN
F 2 "" H 9400 2000 50  0001 C CNN
F 3 "" H 9400 2000 50  0001 C CNN
	1    9400 2000
	1    0    0    -1  
$EndComp
Wire Wire Line
	5000 3100 5450 3100
Wire Wire Line
	6050 3100 6450 3100
$Comp
L power:VCC #PWR?
U 1 1 5EC2C9A9
P 7650 2900
F 0 "#PWR?" H 7650 2750 50  0001 C CNN
F 1 "VCC" H 7667 3073 50  0000 C CNN
F 2 "" H 7650 2900 50  0001 C CNN
F 3 "" H 7650 2900 50  0001 C CNN
	1    7650 2900
	1    0    0    -1  
$EndComp
Wire Wire Line
	5000 4050 5450 4050
Wire Wire Line
	6050 4050 8500 4050
$EndSCHEMATC
