EESchema Schematic File Version 4
EELAYER 30 0
EELAYER END
$Descr A4 11693 8268
encoding utf-8
Sheet 6 22
Title ""
Date "18 sep 2017"
Rev ""
Comp ""
Comment1 ""
Comment2 ""
Comment3 ""
Comment4 ""
$EndDescr
$Comp
L 74LS244 U23
U 1 1 58689EC7
P 5200 1900
F 0 "U23" H 5000 2550 60  0000 C CNN
F 1 "74LS244" H 4850 1200 60  0000 C CNN
F 2 "~" H 5200 1900 60  0000 C CNN
F 3 "~" H 5200 1900 60  0000 C CNN
	1    5200 1900
	1    0    0    -1  
$EndComp
Text HLabel 8000 2100 2    60   Output ~ 0
STROUT
Wire Wire Line
	5700 2100 8000 2100
Text HLabel 2600 2100 0    60   Input ~ 0
STRIN
Wire Wire Line
	4700 2100 2600 2100
Text HLabel 2600 2300 0    60   Input ~ 0
DISABLE_RAM
Wire Wire Line
	2600 2300 4600 2300
Wire Wire Line
	4700 2400 4600 2400
Wire Wire Line
	4600 2400 4600 2300
Connection ~ 4600 2300
Text HLabel 2600 1400 0    60   Input ~ 0
RAMWE
Wire Wire Line
	2600 1400 4700 1400
Text HLabel 8000 1400 2    60   Output ~ 0
RWE
Wire Wire Line
	5700 1400 8000 1400
Text HLabel 2600 1500 0    60   Input ~ 0
RAMOE
Text HLabel 8000 1500 2    60   Output ~ 0
ROE
Wire Wire Line
	5700 1500 8000 1500
Wire Wire Line
	4700 1500 2600 1500
$Comp
L 74xx:74LS138 U26
U 1 1 59B8EC8B
P 3900 4600
F 0 "U26" H 4000 5100 60  0000 C CNN
F 1 "74LS138" H 4050 4051 60  0000 C CNN
F 2 "~" H 3900 4600 60  0000 C CNN
F 3 "~" H 3900 4600 60  0000 C CNN
	1    3900 4600
	1    0    0    -1  
$EndComp
$Comp
L Jumper:Jumper_3_Open JP5
U 1 1 59B8ECB5
P 3000 4000
F 0 "JP5" H 2900 4100 40  0000 L CNN
F 1 "JUMPER3" H 3000 4100 40  0001 C CNN
F 2 "~" H 3000 4000 60  0001 C CNN
F 3 "~" H 3000 4000 60  0001 C CNN
	1    3000 4000
	1    0    0    -1  
$EndComp
$Comp
L Jumper:Jumper_3_Open JP6
U 1 1 59B8ECC4
P 2550 3800
F 0 "JP6" H 2400 3900 40  0000 L CNN
F 1 "JUMPER3" H 2350 3700 40  0001 C CNN
F 2 "~" H 2550 3800 60  0001 C CNN
F 3 "~" H 2550 3800 60  0001 C CNN
	1    2550 3800
	1    0    0    -1  
$EndComp
Wire Wire Line
	3400 4400 3000 4400
Wire Wire Line
	3000 4400 3000 4100
Wire Wire Line
	3400 4500 2550 4500
Wire Wire Line
	2550 4500 2550 3900
$Comp
L power:VCC #PWR?
U 1 1 59B8ED78
P 1950 3300
F 0 "#PWR?" H 1950 3400 30  0001 C CNN
F 1 "VCC" H 1950 3450 30  0000 C CNN
F 2 "" H 1950 3300 60  0000 C CNN
F 3 "" H 1950 3300 60  0000 C CNN
	1    1950 3300
	1    0    0    -1  
$EndComp
Wire Wire Line
	3400 4800 1950 4800
Wire Wire Line
	1950 4800 1950 3300
Text HLabel 1600 5000 0    60   Input ~ 0
DISEL
Wire Wire Line
	1600 5000 3000 5000
Wire Wire Line
	3400 4900 3000 4900
Wire Wire Line
	3000 4900 3000 5000
Connection ~ 3000 5000
Text HLabel 1600 4300 0    60   Input ~ 0
ULSEL
Wire Wire Line
	3400 4300 1600 4300
$Comp
L power:GND #PWR?
U 1 1 59B8F0EA
P 2650 5400
AR Path="/59B8F0EA" Ref="#PWR?"  Part="1" 
AR Path="/58689C25/59B8F0EA" Ref="#PWR?"  Part="1" 
F 0 "#PWR?" H 2650 5400 30  0001 C CNN
F 1 "GND" H 2650 5330 30  0001 C CNN
F 2 "" H 2650 5400 60  0000 C CNN
F 3 "" H 2650 5400 60  0000 C CNN
	1    2650 5400
	1    0    0    -1  
$EndComp
Wire Wire Line
	2750 4000 2650 4000
Wire Wire Line
	2650 4000 2650 5400
Text HLabel 1600 3800 0    60   Input ~ 0
BXA17
Wire Wire Line
	2300 3800 1600 3800
Wire Wire Line
	2800 3800 2950 3800
Wire Wire Line
	2950 3800 2950 3650
Wire Wire Line
	2950 3650 1600 3650
Text HLabel 1600 3650 0    60   Input ~ 0
BXA17-1
Text HLabel 1600 3500 0    60   Input ~ 0
Q3
Wire Wire Line
	3250 4000 3450 4000
Wire Wire Line
	3450 4000 3450 3500
Wire Wire Line
	3450 3500 1600 3500
$Comp
L wice-rescue:4066- U27
U 1 1 59B8F17D
P 5400 3400
AR Path="/59B8F17D" Ref="U27"  Part="1" 
AR Path="/58689C25/59B8F17D" Ref="U27"  Part="1" 
F 0 "U27" H 5600 3251 40  0000 C CNN
F 1 "74HC4066" H 5600 3550 40  0000 C CNN
F 2 "" H 5400 3400 60  0000 C CNN
F 3 "" H 5400 3400 60  0000 C CNN
	1    5400 3400
	-1   0    0    1   
$EndComp
$Comp
L wice-rescue:4066- U27
U 2 1 59B8F18C
P 6000 3950
AR Path="/59B8F18C" Ref="U27"  Part="2" 
AR Path="/58689C25/59B8F18C" Ref="U27"  Part="2" 
F 0 "U27" H 6200 3801 40  0000 C CNN
F 1 "74HC4066" H 6200 4100 40  0000 C CNN
F 2 "" H 6000 3950 60  0000 C CNN
F 3 "" H 6000 3950 60  0000 C CNN
	2    6000 3950
	1    0    0    1   
$EndComp
$Comp
L wice-rescue:4066- U27
U 3 1 59B8F19B
P 5350 4450
AR Path="/59B8F19B" Ref="U27"  Part="3" 
AR Path="/58689C25/59B8F19B" Ref="U27"  Part="3" 
F 0 "U27" H 5550 4301 40  0000 C CNN
F 1 "4066" H 5550 4600 40  0000 C CNN
F 2 "" H 5350 4450 60  0000 C CNN
F 3 "" H 5350 4450 60  0000 C CNN
	3    5350 4450
	-1   0    0    1   
$EndComp
$Comp
L wice-rescue:4066- U27
U 4 1 59B8F1AA
P 6000 5050
AR Path="/59B8F1AA" Ref="U27"  Part="4" 
AR Path="/58689C25/59B8F1AA" Ref="U27"  Part="4" 
F 0 "U27" H 6200 4901 40  0000 C CNN
F 1 "4066" H 6200 5200 40  0000 C CNN
F 2 "" H 6000 5050 60  0000 C CNN
F 3 "" H 6000 5050 60  0000 C CNN
	4    6000 5050
	1    0    0    1   
$EndComp
$Comp
L wice-rescue:4066- U28
U 2 1 59B8F1B9
P 6000 6250
AR Path="/59B8F1B9" Ref="U28"  Part="2" 
AR Path="/58689C25/59B8F1B9" Ref="U28"  Part="2" 
F 0 "U28" H 6200 6101 40  0000 C CNN
F 1 "4066" H 6200 6400 40  0000 C CNN
F 2 "" H 6000 6250 60  0000 C CNN
F 3 "" H 6000 6250 60  0000 C CNN
	2    6000 6250
	1    0    0    1   
$EndComp
$Comp
L wice-rescue:4066- U28
U 4 1 59B8F1C8
P 6000 7250
AR Path="/59B8F1C8" Ref="U28"  Part="4" 
AR Path="/58689C25/59B8F1C8" Ref="U28"  Part="4" 
F 0 "U28" H 6200 7101 40  0000 C CNN
F 1 "4066" H 6200 7400 40  0000 C CNN
F 2 "" H 6000 7250 60  0000 C CNN
F 3 "" H 6000 7250 60  0000 C CNN
	4    6000 7250
	1    0    0    1   
$EndComp
$Comp
L wice-rescue:4066- U28
U 1 1 59B8F1D7
P 5400 5650
AR Path="/59B8F1D7" Ref="U28"  Part="1" 
AR Path="/58689C25/59B8F1D7" Ref="U28"  Part="1" 
F 0 "U28" H 5600 5501 40  0000 C CNN
F 1 "4066" H 5600 5800 40  0000 C CNN
F 2 "" H 5400 5650 60  0000 C CNN
F 3 "" H 5400 5650 60  0000 C CNN
	1    5400 5650
	-1   0    0    1   
$EndComp
$Comp
L wice-rescue:4066- U28
U 3 1 59B8F1E6
P 5400 6700
AR Path="/59B8F1E6" Ref="U28"  Part="3" 
AR Path="/58689C25/59B8F1E6" Ref="U28"  Part="3" 
F 0 "U28" H 5600 6551 40  0000 C CNN
F 1 "4066" H 5600 6850 40  0000 C CNN
F 2 "" H 5400 6700 60  0000 C CNN
F 3 "" H 5400 6700 60  0000 C CNN
	3    5400 6700
	-1   0    0    1   
$EndComp
Wire Wire Line
	4400 4300 4700 4300
Wire Wire Line
	4700 4300 4700 3400
Wire Wire Line
	4700 3400 5100 3400
Wire Wire Line
	4400 4400 4750 4400
Wire Wire Line
	4750 4400 4750 3950
Wire Wire Line
	6000 4250 6000 4300
Wire Wire Line
	6000 4300 6500 4300
Wire Wire Line
	6500 3750 6500 4300
Wire Wire Line
	5400 3750 6500 3750
Wire Wire Line
	4800 4500 4400 4500
Wire Wire Line
	6500 4450 5650 4450
Connection ~ 6500 4300
Wire Wire Line
	5700 5050 4900 5050
Wire Wire Line
	4900 5050 4900 4600
Wire Wire Line
	4900 4600 4400 4600
Connection ~ 6500 4450
Wire Wire Line
	4400 4700 4850 4700
Wire Wire Line
	4850 4700 4850 5650
Wire Wire Line
	4850 5650 5100 5650
Wire Wire Line
	5700 6250 4800 6250
Wire Wire Line
	4800 4800 4400 4800
Wire Wire Line
	6000 6550 6000 6600
Wire Wire Line
	6000 6600 6500 6600
Wire Wire Line
	6500 6000 6500 6600
Wire Wire Line
	4750 3950 5700 3950
Wire Wire Line
	4800 4450 4800 4500
Wire Wire Line
	4800 4450 5050 4450
Wire Wire Line
	5100 6700 4750 6700
Wire Wire Line
	4750 6700 4750 4900
Wire Wire Line
	4750 4900 4400 4900
Wire Wire Line
	5700 7250 4700 7250
Wire Wire Line
	4700 7250 4700 5000
Wire Wire Line
	4700 5000 4400 5000
Wire Wire Line
	6500 7050 5400 7050
Connection ~ 6500 6600
Wire Wire Line
	6000 7550 6000 7700
Wire Wire Line
	6000 7700 6500 7700
Connection ~ 6500 7050
Text HLabel 7450 3750 2    60   Input ~ 0
LOWSEL
Text HLabel 7500 6000 2    60   Input ~ 0
HISEL
Connection ~ 6500 6000
Text HLabel 8000 1600 2    60   Output ~ 0
RSEL0
Text HLabel 8000 1700 2    60   Output ~ 0
RSEL1
Text HLabel 8000 1800 2    60   Output ~ 0
RSEL2
Text HLabel 8000 1900 2    60   Output ~ 0
RSEL3
Wire Wire Line
	5700 1600 6600 1600
Wire Wire Line
	6600 3400 5700 3400
Wire Wire Line
	6600 1600 6600 3400
Connection ~ 6600 1600
Wire Wire Line
	5700 1700 6700 1700
Wire Wire Line
	6300 3950 6700 3950
Wire Wire Line
	5700 1800 6800 1800
Wire Wire Line
	5350 4850 6800 4850
Wire Wire Line
	6800 1800 6800 4850
Wire Wire Line
	6300 5050 6900 5050
Connection ~ 6600 3400
Wire Wire Line
	6700 6250 6300 6250
Wire Wire Line
	6800 6700 5700 6700
Connection ~ 6800 4850
Wire Wire Line
	6300 7250 6900 7250
Wire Wire Line
	4600 2300 4700 2300
Wire Wire Line
	3000 5000 3400 5000
Wire Wire Line
	6500 4300 6500 4450
Wire Wire Line
	6500 6600 6500 7050
Wire Wire Line
	6500 7050 6500 7700
Wire Wire Line
	6500 3750 7450 3750
Wire Wire Line
	6500 6000 7500 6000
Wire Wire Line
	6600 1600 8000 1600
Wire Wire Line
	6600 3400 6600 5650
Wire Wire Line
	6800 4850 6800 6700
$Comp
L power:GND #PWR?
U 1 1 5F0EE827
P 3900 5500
F 0 "#PWR?" H 3900 5250 50  0001 C CNN
F 1 "GND" H 3905 5327 50  0000 C CNN
F 2 "" H 3900 5500 50  0001 C CNN
F 3 "" H 3900 5500 50  0001 C CNN
	1    3900 5500
	1    0    0    -1  
$EndComp
$Comp
L power:VCC #PWR?
U 1 1 5F0EEF79
P 3900 3750
F 0 "#PWR?" H 3900 3600 50  0001 C CNN
F 1 "VCC" H 3915 3923 50  0000 C CNN
F 2 "" H 3900 3750 50  0001 C CNN
F 3 "" H 3900 3750 50  0001 C CNN
	1    3900 3750
	1    0    0    -1  
$EndComp
$Comp
L power:VCC #PWR?
U 1 1 5F0EFA7B
P 5200 900
F 0 "#PWR?" H 5200 750 50  0001 C CNN
F 1 "VCC" H 5215 1073 50  0000 C CNN
F 2 "" H 5200 900 50  0001 C CNN
F 3 "" H 5200 900 50  0001 C CNN
	1    5200 900 
	1    0    0    -1  
$EndComp
$Comp
L power:GND #PWR?
U 1 1 5F0F16D4
P 5200 2800
F 0 "#PWR?" H 5200 2550 50  0001 C CNN
F 1 "GND" H 5205 2627 50  0000 C CNN
F 2 "" H 5200 2800 50  0001 C CNN
F 3 "" H 5200 2800 50  0001 C CNN
	1    5200 2800
	1    0    0    -1  
$EndComp
Wire Wire Line
	5400 7050 5400 7000
Wire Wire Line
	4800 4800 4800 6250
Wire Wire Line
	5400 6000 5400 5950
Wire Wire Line
	5400 6000 6500 6000
Connection ~ 6900 5050
Wire Wire Line
	6900 1900 6900 5050
Wire Wire Line
	6000 5350 6000 5500
Wire Wire Line
	6000 5500 6500 5500
Wire Wire Line
	6500 4450 6500 5500
Wire Wire Line
	5350 4850 5350 4750
Connection ~ 6700 3950
Wire Wire Line
	6700 3950 6700 6250
Wire Wire Line
	6700 1700 6700 3950
Connection ~ 6500 3750
Wire Wire Line
	5400 3750 5400 3700
Wire Wire Line
	6600 5650 5700 5650
Wire Wire Line
	6700 1700 8000 1700
Connection ~ 6700 1700
Connection ~ 6800 1800
Wire Wire Line
	6800 1800 8000 1800
Wire Wire Line
	6900 5050 6900 7250
Connection ~ 6900 1900
Wire Wire Line
	6900 1900 5700 1900
Wire Wire Line
	6900 1900 8000 1900
$EndSCHEMATC
