EESchema Schematic File Version 4
EELAYER 30 0
EELAYER END
$Descr A4 11693 8268
encoding utf-8
Sheet 20 22
Title ""
Date "18 sep 2017"
Rev ""
Comp ""
Comment1 ""
Comment2 ""
Comment3 ""
Comment4 ""
$EndDescr
$Comp
L 4xxx:4040 U10
U 1 1 58848401
P 5500 1600
F 0 "U10" H 5600 2250 60  0000 C CNN
F 1 "74HC4040" H 5750 950 60  0000 C CNN
F 2 "" H 5500 1600 60  0000 C CNN
F 3 "" H 5500 1600 60  0000 C CNN
	1    5500 1600
	1    0    0    -1  
$EndComp
$Comp
L 4xxx:4040 U11
U 1 1 58848410
P 5500 3900
F 0 "U11" H 5600 4550 60  0000 C CNN
F 1 "74HC4040" H 5750 3250 60  0000 C CNN
F 2 "" H 5500 3900 60  0000 C CNN
F 3 "" H 5500 3900 60  0000 C CNN
	1    5500 3900
	1    0    0    -1  
$EndComp
$Comp
L Device:R_Pack04 RP2
U 1 1 58848452
P 7500 1100
F 0 "RP2" V 7200 1100 40  0000 C CNN
F 1 "4k7" V 7700 1100 40  0000 C CNN
F 2 "~" H 7500 1100 60  0000 C CNN
F 3 "~" H 7500 1100 60  0000 C CNN
	1    7500 1100
	0    1    1    0   
$EndComp
$Comp
L Device:R_Pack04 RP3
U 1 1 58848461
P 7500 1700
F 0 "RP3" V 7200 1700 40  0000 C CNN
F 1 "4k7" V 7700 1700 40  0000 C CNN
F 2 "~" H 7500 1700 60  0000 C CNN
F 3 "~" H 7500 1700 60  0000 C CNN
	1    7500 1700
	0    1    1    0   
$EndComp
$Comp
L Device:R_Pack04 RP4
U 1 1 58848470
P 7500 2300
F 0 "RP4" V 7200 2300 40  0000 C CNN
F 1 "4k7" V 7700 2300 40  0000 C CNN
F 2 "~" H 7500 2300 60  0000 C CNN
F 3 "~" H 7500 2300 60  0000 C CNN
	1    7500 2300
	0    1    1    0   
$EndComp
$Comp
L Device:R_Pack04 RP5
U 1 1 5884847F
P 7500 2900
F 0 "RP5" V 7200 2900 40  0000 C CNN
F 1 "4k7" V 7700 2900 40  0000 C CNN
F 2 "~" H 7500 2900 60  0000 C CNN
F 3 "~" H 7500 2900 60  0000 C CNN
	1    7500 2900
	0    1    1    0   
$EndComp
Wire Wire Line
	6000 1100 6300 1100
Wire Wire Line
	6300 1100 6300 900 
Wire Wire Line
	6300 900  7300 900 
Wire Wire Line
	6000 1200 6350 1200
Wire Wire Line
	6350 1200 6350 1000
Wire Wire Line
	6350 1000 7300 1000
Wire Wire Line
	6000 1300 6400 1300
Wire Wire Line
	6400 1300 6400 1100
Wire Wire Line
	6400 1100 7300 1100
Wire Wire Line
	6000 1400 6450 1400
Wire Wire Line
	6450 1400 6450 1200
Wire Wire Line
	6450 1200 7300 1200
Wire Wire Line
	6000 1500 7300 1500
Wire Wire Line
	6000 1600 7300 1600
Wire Wire Line
	6000 1700 7300 1700
Wire Wire Line
	6000 1800 7300 1800
Wire Wire Line
	6000 1900 6450 1900
Wire Wire Line
	6450 1900 6450 2100
Wire Wire Line
	6450 2100 7300 2100
Wire Wire Line
	6000 2000 6400 2000
Wire Wire Line
	6400 2000 6400 2200
Wire Wire Line
	6400 2200 7300 2200
Wire Wire Line
	6000 2100 6350 2100
Wire Wire Line
	6350 2100 6350 2300
Wire Wire Line
	6350 2300 7300 2300
Wire Wire Line
	6000 2200 6300 2200
Wire Wire Line
	6300 2200 6300 2400
Wire Wire Line
	5000 3400 4350 3400
Wire Wire Line
	4350 3400 4350 2600
Wire Wire Line
	6300 2700 7300 2700
Wire Wire Line
	7300 2800 6400 2800
Wire Wire Line
	6500 2900 7300 2900
Wire Wire Line
	7300 3000 6600 3000
Text HLabel 1050 1100 0    60   Input ~ 0
ACLK
Text HLabel 1050 1400 0    60   Input ~ 0
ARESET
Wire Wire Line
	1050 1400 4200 1400
Wire Wire Line
	5000 3700 4200 3700
Wire Wire Line
	4200 3700 4200 1400
Connection ~ 4200 1400
$Comp
L Device:R R4
U 1 1 588486BD
P 7500 3200
F 0 "R4" V 7580 3200 40  0000 C CNN
F 1 "4k7" V 7507 3201 40  0000 C CNN
F 2 "~" V 7430 3200 30  0000 C CNN
F 3 "~" H 7500 3200 30  0000 C CNN
	1    7500 3200
	0    1    1    0   
$EndComp
Wire Wire Line
	6000 3800 6700 3800
Wire Wire Line
	6700 3800 6700 3200
Wire Bus Line
	8700 700  10400 700 
Text HLabel 10400 700  2    60   Output ~ 0
RA[0..16]
Entry Wire Line
	8600 900  8700 1000
Entry Wire Line
	8600 1000 8700 1100
Entry Wire Line
	8600 1100 8700 1200
Entry Wire Line
	8600 1200 8700 1300
Entry Wire Line
	8600 1500 8700 1600
Entry Wire Line
	8600 1600 8700 1700
Entry Wire Line
	8600 1700 8700 1800
Entry Wire Line
	8600 1800 8700 1900
Entry Wire Line
	8600 2100 8700 2200
Entry Wire Line
	8600 2200 8700 2300
Entry Wire Line
	8600 2300 8700 2400
Entry Wire Line
	8600 2400 8700 2500
Entry Wire Line
	8600 2700 8700 2600
Entry Wire Line
	8600 2800 8700 2700
Entry Wire Line
	8600 2900 8700 2800
Entry Wire Line
	8600 3000 8700 2900
Entry Wire Line
	8600 3200 8700 3100
Wire Wire Line
	7700 900  8600 900 
Wire Wire Line
	8600 1000 7700 1000
Wire Wire Line
	7700 1100 8600 1100
Wire Wire Line
	8600 1200 7700 1200
Wire Wire Line
	7700 1500 8600 1500
Wire Wire Line
	8600 1600 7700 1600
Wire Wire Line
	7700 1700 8600 1700
Wire Wire Line
	8600 1800 7700 1800
Wire Wire Line
	7700 2100 8600 2100
Wire Wire Line
	8600 2200 7700 2200
Wire Wire Line
	7700 2300 8600 2300
Wire Wire Line
	7700 2400 8600 2400
Wire Wire Line
	7700 2700 8600 2700
Wire Wire Line
	8600 2800 7700 2800
Wire Wire Line
	7700 2900 8600 2900
Wire Wire Line
	7700 3000 8600 3000
Wire Wire Line
	6000 4000 6600 4000
Wire Wire Line
	6600 4000 6600 5200
Text Label 8500 900  2    60   ~ 0
RA0
Text Label 8500 1000 2    60   ~ 0
RA1
Text Label 8500 1100 2    60   ~ 0
RA2
Text Label 8500 1200 2    60   ~ 0
RA3
Text Label 8500 1500 2    60   ~ 0
RA4
Text Label 8500 1600 2    60   ~ 0
RA5
Text Label 8500 1700 2    60   ~ 0
RA6
Text Label 8500 1800 2    60   ~ 0
RA7
Text Label 8500 2100 2    60   ~ 0
RA8
Text Label 8500 2200 2    60   ~ 0
RA9
Text Label 8500 2300 2    60   ~ 0
RA10
Text Label 8500 2400 2    60   ~ 0
RA11
Text Label 8500 2700 2    60   ~ 0
RA12
Text Label 8500 2800 2    60   ~ 0
RA13
Text Label 8500 2900 2    60   ~ 0
RA14
Text Label 8500 3000 2    60   ~ 0
RA15
Text Label 8500 3200 2    60   ~ 0
RA16
$Comp
L 74xx:74LS139 U3
U 1 1 599C9E8A
P 5150 5850
F 0 "U3" H 5000 6100 60  0000 C CNN
F 1 "74LS139" H 5100 5500 60  0000 C CNN
F 2 "~" H 5150 5850 60  0000 C CNN
F 3 "~" H 5150 5850 60  0000 C CNN
	1    5150 5850
	1    0    0    -1  
$EndComp
Wire Wire Line
	6600 5200 4000 5200
Wire Wire Line
	4000 5200 4000 5750
Wire Wire Line
	4000 5750 4650 5750
Wire Wire Line
	4650 5850 3900 5850
Wire Wire Line
	3900 5850 3900 5100
Wire Wire Line
	6500 5100 3900 5100
Wire Wire Line
	6500 3900 6500 5100
Text Label 4350 5750 2    60   ~ 0
RA18
Text Label 4350 5850 2    60   ~ 0
RA17
Wire Wire Line
	6500 3900 6000 3900
Wire Wire Line
	6300 2400 7300 2400
Wire Wire Line
	4200 1400 5000 1400
Wire Wire Line
	1050 1100 5000 1100
Wire Wire Line
	6600 3000 6600 3700
Wire Wire Line
	6600 3700 6000 3700
Wire Wire Line
	6500 2900 6500 3600
Wire Wire Line
	6500 3600 6000 3600
Wire Wire Line
	6400 2800 6400 3500
Wire Wire Line
	6400 3500 6000 3500
Wire Wire Line
	6300 2700 6300 3400
Wire Wire Line
	6300 3400 6000 3400
Wire Wire Line
	6300 2600 6300 2400
Wire Wire Line
	4350 2600 6300 2600
Connection ~ 6300 2400
Wire Wire Line
	6700 3200 7350 3200
Wire Wire Line
	7650 3200 8600 3200
Wire Bus Line
	8700 700  8700 3300
$EndSCHEMATC
