EESchema Schematic File Version 4
EELAYER 30 0
EELAYER END
$Descr A4 11693 8268
encoding utf-8
Sheet 7 22
Title ""
Date "18 sep 2017"
Rev ""
Comp ""
Comment1 ""
Comment2 ""
Comment3 ""
Comment4 ""
$EndDescr
$Comp
L wice-mod:PALCE22V10 U8
U 1 1 58694117
P 5950 2800
F 0 "U8" H 5600 3550 50  0000 L CNN
F 1 "PALCE22V10" H 5900 3550 50  0000 L CNN
F 2 "" H 5950 2800 50  0000 C CNN
F 3 "" H 5950 2800 50  0000 C CNN
	1    5950 2800
	1    0    0    -1  
$EndComp
Text HLabel 2400 2200 0    60   Input ~ 0
CLKU8
Wire Wire Line
	5450 2200 2400 2200
Text HLabel 2400 2300 0    60   Input ~ 0
POR
Wire Wire Line
	2400 2300 4300 2300
Text HLabel 7950 2600 2    60   Input ~ 0
A17EN
Wire Wire Line
	7950 2600 6450 2600
Wire Bus Line
	1050 1950 1500 1950
Entry Wire Line
	1500 2300 1600 2400
Entry Wire Line
	1500 2400 1600 2500
Entry Wire Line
	1500 2500 1600 2600
Entry Wire Line
	1500 2600 1600 2700
Wire Wire Line
	1600 2400 5450 2400
Wire Wire Line
	1600 2500 5450 2500
Wire Wire Line
	1600 2600 5450 2600
Wire Wire Line
	1600 2700 5450 2700
Text Label 1850 2400 2    60   ~ 0
BD4
Text Label 1850 2500 2    60   ~ 0
BD5
Text Label 1850 2600 2    60   ~ 0
BD6
Text Label 1850 2700 2    60   ~ 0
BD7
Text HLabel 7950 3200 2    60   Output ~ 0
DOUT
Wire Wire Line
	6450 3200 7950 3200
Text HLabel 7950 3100 2    60   Output ~ 0
LATCHEN01
Wire Wire Line
	7950 3100 6450 3100
$Comp
L 74xx:74LS74 U9
U 1 1 587CBDDA
P 5850 5600
F 0 "U9" H 6000 5900 60  0000 C CNN
F 1 "74LS74" H 6150 5305 60  0000 C CNN
F 2 "~" H 5850 5600 60  0000 C CNN
F 3 "~" H 5850 5600 60  0000 C CNN
	1    5850 5600
	1    0    0    -1  
$EndComp
Text HLabel 1100 5600 0    60   Input ~ 0
CLKU9
Wire Wire Line
	6450 3000 7100 3000
Wire Wire Line
	7100 3000 7100 4150
Wire Wire Line
	7100 4150 4650 4150
Wire Wire Line
	4650 4150 4650 5400
Wire Wire Line
	5450 3200 4500 3200
Wire Wire Line
	4500 3200 4500 6450
Wire Wire Line
	4500 6450 7000 6450
Wire Wire Line
	7000 6450 7000 5800
Wire Wire Line
	6450 5800 7000 5800
Text HLabel 7950 5800 2    60   Output ~ 0
SEL_STB
Connection ~ 7000 5800
Text Label 6500 3000 0    60   ~ 0
MODE
Wire Wire Line
	4300 2300 4300 6300
Connection ~ 4300 2300
Wire Wire Line
	4300 6300 5850 6300
Text HLabel 1050 1950 0    60   Input ~ 0
BD[4..7]
$Comp
L conn:CONN_3 JP1
U 1 1 58833069
P 950 3100
F 0 "JP1" V 900 3100 50  0000 C CNN
F 1 "3 PIN" V 1000 3100 40  0000 C CNN
F 2 "" H 950 3100 60  0000 C CNN
F 3 "" H 950 3100 60  0000 C CNN
	1    950  3100
	-1   0    0    -1  
$EndComp
$Comp
L conn:CONN_3 JP2
U 1 1 58833078
P 950 3400
F 0 "JP2" V 900 3400 50  0000 C CNN
F 1 "3 PIN" V 1000 3400 40  0000 C CNN
F 2 "" H 950 3400 60  0000 C CNN
F 3 "" H 950 3400 60  0000 C CNN
	1    950  3400
	-1   0    0    -1  
$EndComp
$Comp
L conn:CONN_3 JP3
U 1 1 58833087
P 950 3700
F 0 "JP3" V 900 3700 50  0000 C CNN
F 1 "3 PIN" V 1000 3700 40  0000 C CNN
F 2 "" H 950 3700 60  0000 C CNN
F 3 "" H 950 3700 60  0000 C CNN
	1    950  3700
	-1   0    0    -1  
$EndComp
$Comp
L conn:CONN_3 JP4
U 1 1 58833096
P 950 4000
F 0 "JP4" V 900 4000 50  0000 C CNN
F 1 "3 PIN" V 1000 4000 40  0000 C CNN
F 2 "" H 950 4000 60  0000 C CNN
F 3 "" H 950 4000 60  0000 C CNN
	1    950  4000
	-1   0    0    -1  
$EndComp
Wire Wire Line
	1300 3100 3300 3100
Wire Wire Line
	3300 3100 3300 2800
Wire Wire Line
	3300 2800 5450 2800
Wire Wire Line
	1300 3400 3400 3400
Wire Wire Line
	3400 3400 3400 2900
Wire Wire Line
	3400 2900 5450 2900
Wire Wire Line
	1300 3700 3500 3700
Wire Wire Line
	3500 3700 3500 3000
Wire Wire Line
	3500 3000 5450 3000
Wire Wire Line
	1300 4000 3600 4000
Wire Wire Line
	3600 4000 3600 3100
Wire Wire Line
	3600 3100 5450 3100
Wire Wire Line
	1450 3900 1300 3900
Wire Wire Line
	1450 2850 1450 3000
Wire Wire Line
	1300 3000 1450 3000
Connection ~ 1450 3000
Wire Wire Line
	1300 3300 1450 3300
Connection ~ 1450 3300
Wire Wire Line
	1300 3600 1450 3600
Connection ~ 1450 3600
Wire Wire Line
	1300 3200 1550 3200
Wire Wire Line
	1550 3200 1550 3500
Wire Wire Line
	1300 3500 1550 3500
Connection ~ 1550 3500
Wire Wire Line
	1300 3800 1550 3800
Connection ~ 1550 3800
Wire Wire Line
	1300 4100 1550 4100
Connection ~ 1550 4100
Text HLabel 1100 4650 0    60   Input ~ 0
L1D0
Wire Wire Line
	1100 4650 3700 4650
Wire Wire Line
	3700 4650 3700 3300
Wire Wire Line
	3700 3300 5450 3300
Text HLabel 7950 2400 2    60   Output ~ 0
U8P23
Wire Wire Line
	6450 2400 7950 2400
Text HLabel 7950 2500 2    60   Input ~ 0
A15EN
Wire Wire Line
	6450 2500 7950 2500
Text Label 4850 5400 0    60   ~ 0
MODE
Text HLabel 7950 2900 2    60   Output ~ 0
O18
Wire Wire Line
	6450 2900 7950 2900
Text HLabel 7950 2800 2    60   Output ~ 0
O19
Wire Wire Line
	6450 2800 7950 2800
Text HLabel 7950 3300 2    60   Input ~ 0
U8P14
Wire Wire Line
	6450 3300 7950 3300
Text HLabel 7950 2700 2    60   Output ~ 0
O20
Wire Wire Line
	7950 2700 6450 2700
$Sheet
S 5050 650  1700 950 
U 5D3F0CBF
F0 "PALCE22V10" 60
F1 "U8_PALCE.sch" 60
F2 "PIN3" I L 5050 700 60 
F3 "PIN7" I L 5050 1000 60 
F4 "PIN4" I L 5050 800 60 
F5 "PIN8" I L 5050 1100 60 
F6 "PIN6" I L 5050 900 60 
F7 "PIN10" I L 5050 1200 60 
F8 "PIN17" O R 6750 900 60 
F9 "PIN5" I L 5050 1300 60 
F10 "PIN9" I L 5050 1400 60 
$EndSheet
$Sheet
S 7200 600  1600 1000
U 5D483D31
F0 "PALCE22V10-01" 60
F1 "U8_PALCE-01.sch" 60
F2 "PIN20" O R 8800 1350 60 
F3 "PIN17" I L 7200 1350 60 
F4 "PIN1" I L 7200 650 60 
F5 "PIN2" I L 7200 750 60 
F6 "PIN23" O R 8800 1550 60 
F7 "PIN21" I L 7200 1450 60 
F8 "PIN22" I L 7200 1550 60 
F9 "PIN14" I L 7200 1250 60 
F10 "PIN16" O R 8800 1250 60 
F11 "PIN13" I L 7200 1150 60 
F12 "PIN15" O R 8800 1150 60 
F13 "PIN18" O R 8800 850 60 
F14 "PIN3" I L 7200 850 60 
F15 "PIN19" O R 8800 950 60 
F16 "PIN4" I L 7200 950 60 
F17 "PIN11" I L 7200 1050 60 
$EndSheet
Wire Wire Line
	7000 5800 7900 5800
Wire Wire Line
	4300 2300 5450 2300
Wire Wire Line
	1450 3000 1450 3300
Wire Wire Line
	1450 3300 1450 3600
Wire Wire Line
	1450 3600 1450 3900
Wire Wire Line
	1550 3500 1550 3800
Wire Wire Line
	1550 3800 1550 4100
Wire Wire Line
	1550 4100 1550 4400
$Comp
L power:VCC #PWR?
U 1 1 5ECB6FB9
P 1450 2850
F 0 "#PWR?" H 1450 2700 50  0001 C CNN
F 1 "VCC" H 1467 3023 50  0000 C CNN
F 2 "" H 1450 2850 50  0001 C CNN
F 3 "" H 1450 2850 50  0001 C CNN
	1    1450 2850
	1    0    0    -1  
$EndComp
$Comp
L power:GND #PWR?
U 1 1 5ECB734C
P 1550 4400
F 0 "#PWR?" H 1550 4150 50  0001 C CNN
F 1 "GND" H 1555 4227 50  0000 C CNN
F 2 "" H 1550 4400 50  0001 C CNN
F 3 "" H 1550 4400 50  0001 C CNN
	1    1550 4400
	1    0    0    -1  
$EndComp
Wire Wire Line
	1100 5600 5550 5600
Wire Wire Line
	5350 5400 5350 5500
Wire Wire Line
	5350 5500 5550 5500
Wire Wire Line
	4650 5400 5350 5400
Wire Wire Line
	5850 4750 5850 5300
Wire Wire Line
	6450 5800 6450 5700
Wire Wire Line
	6450 5700 6150 5700
Wire Wire Line
	5850 5900 5850 6300
Wire Bus Line
	1500 1950 1500 2600
$Comp
L power:VCC #PWR?
U 1 1 5ECC394F
P 5850 4750
F 0 "#PWR?" H 5850 4600 50  0001 C CNN
F 1 "VCC" H 5867 4923 50  0000 C CNN
F 2 "" H 5850 4750 50  0001 C CNN
F 3 "" H 5850 4750 50  0001 C CNN
	1    5850 4750
	1    0    0    -1  
$EndComp
$EndSCHEMATC
