EESchema Schematic File Version 4
EELAYER 30 0
EELAYER END
$Descr A4 11693 8268
encoding utf-8
Sheet 19 22
Title ""
Date "18 sep 2017"
Rev ""
Comp ""
Comment1 ""
Comment2 ""
Comment3 ""
Comment4 ""
$EndDescr
$Comp
L wice-mod:74LS240-IEEE U1
U 1 1 59B106D9
P 2050 1000
F 0 "U1" H 1900 1450 60  0000 C CNN
F 1 "74LS240-IEEE" H 2050 650 60  0000 C CNN
F 2 "~" H 2050 1000 60  0000 C CNN
F 3 "~" H 2050 1000 60  0000 C CNN
	1    2050 1000
	1    0    0    -1  
$EndComp
Text HLabel 1000 700  0    60   Input ~ 0
SEL
Wire Wire Line
	1000 700  1500 700 
Text HLabel 1000 900  0    60   Input ~ 0
XCS1
Text HLabel 6450 900  2    60   Output ~ 0
RCS2
Wire Wire Line
	2600 900  6450 900 
Wire Wire Line
	1000 900  1500 900 
Text HLabel 1000 1000 0    60   Input ~ 0
U6-A17
Text HLabel 1000 1100 0    60   Input ~ 0
U8-A18
Text HLabel 1000 1200 0    60   Input ~ 0
U6-XSEL
Wire Wire Line
	1000 1000 1500 1000
Text HLabel 3050 1000 2    60   Output ~ 0
R19-A17
Wire Wire Line
	2600 1000 3050 1000
Text HLabel 3050 1100 2    60   Output ~ 0
R16-A18
Wire Wire Line
	2600 1100 2850 1100
Wire Wire Line
	1000 1100 1500 1100
Text HLabel 3050 1200 2    60   Output ~ 0
R18-SEL
Wire Wire Line
	2600 1200 3050 1200
Wire Wire Line
	1500 1200 1000 1200
$Comp
L Device:R R16
U 1 1 5CB9D884
P 2850 3100
F 0 "R16" V 2930 3100 50  0000 C CNN
F 1 "1K" V 2850 3100 50  0000 C CNN
F 2 "" V 2780 3100 50  0000 C CNN
F 3 "" H 2850 3100 50  0000 C CNN
	1    2850 3100
	1    0    0    -1  
$EndComp
Wire Wire Line
	2850 2950 2850 1100
Connection ~ 2850 1100
$Comp
L 4xxx:4066 U29
U 1 1 5CB9D983
P 4150 3750
F 0 "U29" H 4350 3601 50  0000 C CNN
F 1 "4066" H 4350 3900 50  0000 C CNN
F 2 "" H 4150 3750 60  0001 C CNN
F 3 "" H 4150 3750 60  0001 C CNN
	1    4150 3750
	1    0    0    1   
$EndComp
Wire Wire Line
	2850 3250 2850 4550
Text HLabel 5550 4200 2    60   Input ~ 0
U29E1
$Comp
L Device:Q_NPN_BCE Q?
U 1 1 5CBA6F3F
P 3300 4550
F 0 "Q?" H 3500 4600 50  0000 L CNN
F 1 "Q_NPN_BCE" H 3500 4500 50  0000 L CNN
F 2 "" H 3500 4650 50  0000 C CNN
F 3 "" H 3300 4550 50  0000 C CNN
	1    3300 4550
	1    0    0    -1  
$EndComp
Wire Wire Line
	2850 4550 3100 4550
Wire Wire Line
	3400 5100 3400 4750
Wire Wire Line
	3400 4350 3400 3750
Wire Wire Line
	3400 3750 3850 3750
Text HLabel 5550 3750 2    60   BiDi ~ 0
XA15
Wire Wire Line
	5550 3750 4450 3750
Wire Wire Line
	5550 4200 4150 4200
Wire Wire Line
	2850 1100 3050 1100
Wire Wire Line
	4150 4200 4150 4050
$Comp
L power:GND #PWR?
U 1 1 5EC0E368
P 3400 5100
F 0 "#PWR?" H 3400 4850 50  0001 C CNN
F 1 "GND" H 3405 4927 50  0000 C CNN
F 2 "" H 3400 5100 50  0001 C CNN
F 3 "" H 3400 5100 50  0001 C CNN
	1    3400 5100
	1    0    0    -1  
$EndComp
$EndSCHEMATC
